<?xml version="1.0" encoding="UTF-8" standalone="no"?>
<!-- Created with Inkscape (http://www.inkscape.org/) -->

<svg
   xmlns:dc="http://purl.org/dc/elements/1.1/"
   xmlns:cc="http://creativecommons.org/ns#"
   xmlns:rdf="http://www.w3.org/1999/02/22-rdf-syntax-ns#"
   xmlns:svg="http://www.w3.org/2000/svg"
   xmlns="http://www.w3.org/2000/svg"
   xmlns:sodipodi="http://sodipodi.sourceforge.net/DTD/sodipodi-0.dtd"
   xmlns:inkscape="http://www.inkscape.org/namespaces/inkscape"
   width="48"
   height="48"
   viewBox="0 0 48 48.000001"
   id="svg2"
   version="1.1"
   inkscape:version="0.91 r13725"
   sodipodi:docname="wall_subwall.svg"
   inkscape:export-filename="../img/wall_subwall_icon.png"
   inkscape:export-xdpi="240"
   inkscape:export-ydpi="240">
  <defs
     id="defs4">
    <mask
       maskUnits="userSpaceOnUse"
       id="mask13943">
      <path
         style="display:inline;opacity:1;fill:#ffffff;fill-opacity:1;stroke:none;stroke-width:3.71853924;stroke-linecap:round;stroke-linejoin:round;stroke-miterlimit:4;stroke-dasharray:none;stroke-opacity:1"
         id="path13945"
         sodipodi:type="arc"
         sodipodi:cx="-686.50781"
         sodipodi:cy="739.12512"
         sodipodi:rx="55.387077"
         sodipodi:ry="56.483513"
         sodipodi:start="4.5469573"
         sodipodi:end="4.5441218"
         sodipodi:open="true"
         d="m -695.62885,683.41276 a 55.387077,56.483513 0 0 1 63.74546,46.37127 55.387077,56.483513 0 0 1 -45.42594,65.04021 55.387077,56.483513 0 0 1 -63.80986,-46.27906 55.387077,56.483513 0 0 1 45.33547,-65.10582"
         transform="matrix(0.70273346,-0.71145322,0.71145322,0.70273346,0,0)" />
    </mask>
    <mask
       maskUnits="userSpaceOnUse"
       id="mask14045">
      <path
         style="display:inline;opacity:1;fill:#ffffff;fill-opacity:1;stroke:none;stroke-width:3.71853924;stroke-linecap:round;stroke-linejoin:round;stroke-miterlimit:4;stroke-dasharray:none;stroke-opacity:1"
         id="path14047"
         sodipodi:type="arc"
         sodipodi:cx="-686.71405"
         sodipodi:cy="739.0564"
         sodipodi:rx="46.263237"
         sodipodi:ry="47.179058"
         sodipodi:start="4.5469573"
         sodipodi:end="4.5441218"
         sodipodi:open="true"
         d="m -694.33259,692.52146 a 46.263237,47.179058 0 0 1 53.24475,38.73259 46.263237,47.179058 0 0 1 -37.94298,54.32622 46.263237,47.179058 0 0 1 -53.29855,-38.65557 46.263237,47.179058 0 0 1 37.86742,-54.38103"
         transform="matrix(0.70273346,-0.71145322,0.71145322,0.70273346,0,0)" />
    </mask>
  </defs>
  <sodipodi:namedview
     id="base"
     pagecolor="#ffffff"
     bordercolor="#666666"
     borderopacity="1.0"
     inkscape:pageopacity="0.0"
     inkscape:pageshadow="2"
     inkscape:zoom="11.2"
     inkscape:cx="20.187949"
     inkscape:cy="29.430409"
     inkscape:document-units="px"
     inkscape:current-layer="layer1"
     showgrid="true"
     units="px"
     gridtolerance="10"
     inkscape:window-width="1920"
     inkscape:window-height="1171"
     inkscape:window-x="0"
     inkscape:window-y="0"
     inkscape:window-maximized="1">
    <inkscape:grid
       type="xygrid"
       id="grid4684"
       enabled="true"
       color="#777777"
       opacity="0.1254902"
       empcolor="#777777"
       empopacity="0.25098039" />
  </sodipodi:namedview>
  <metadata
     id="metadata7">
    <rdf:RDF>
      <cc:Work
         rdf:about="">
        <dc:format>image/svg+xml</dc:format>
        <dc:type
           rdf:resource="http://purl.org/dc/dcmitype/StillImage" />
        <dc:title></dc:title>
      </cc:Work>
    </rdf:RDF>
  </metadata>
  <g
     inkscape:groupmode="layer"
     id="layer4"
     inkscape:label="Layer 4"
     style="display:none" />
  <g
     inkscape:groupmode="layer"
     id="layer3"
     inkscape:label="Layer 3"
     style="display:none" />
  <g
     inkscape:groupmode="layer"
     id="layer2"
     inkscape:label="Layer 2"
     style="display:none" />
  <g
     inkscape:label="Layer 1"
     inkscape:groupmode="layer"
     id="layer1"
     transform="translate(0,-1004.3622)"
     style="display:inline;opacity:1">
    <path
       style="display:inline;opacity:1;fill:#00c851;fill-opacity:1;stroke:#000000;stroke-width:3.71853924;stroke-linecap:round;stroke-linejoin:round;stroke-miterlimit:4;stroke-dasharray:none;stroke-opacity:1"
       id="path5350"
       sodipodi:type="arc"
       sodipodi:cx="23.975025"
       sodipodi:cy="1028.4165"
       sodipodi:rx="19.832224"
       sodipodi:ry="20.224817"
       sodipodi:start="4.5469573"
       sodipodi:end="4.5441218"
       sodipodi:open="true"
       d="m 20.709092,1008.4678 a 19.832224,20.224817 0 0 1 22.825075,16.604 19.832224,20.224817 0 0 1 -16.265478,23.2887 19.832224,20.224817 0 0 1 -22.8481358,-16.571 19.832224,20.224817 0 0 1 16.2330848,-23.3122" />
    <g
       style="display:inline;opacity:1;fill:#ffffff;fill-opacity:1"
       transform="matrix(0.27439707,0.27780188,-0.27780188,0.27439707,292.04556,739.80108)"
       id="g11362"
       mask="url(#mask14045)">
      <path
         inkscape:connector-curvature="0"
         style="fill:#ffffff;fill-opacity:1;stroke:none"
         d="m 51.428572,682.36218 a 42.857143,42.857143 0 1 1 -85.714287,0 42.857143,42.857143 0 1 1 85.714287,0 z"
         transform="matrix(0.14279177,0.03136927,-0.03136927,0.14279177,31.448182,898.85594)"
         id="path11364" />
      <path
         inkscape:connector-curvature="0"
         style="fill:#ffffff;fill-opacity:1;stroke:none"
         d="m 26.637499,1020.7685 c -1.310955,-1.2857 -7.770009,-8.5246 -9.087583,-10.0274 -1.303093,-1.4863 -1.611621,-2.0521 -1.932073,-3.543 -0.157448,-0.7326 -0.14979,-1.1858 0.0388,-2.2969 0.415495,-2.4479 1.508991,-4.2006 3.589013,-5.75282 l 1.172134,-0.87469 -0.145523,-8.94765 c -0.08003,-4.9212 -0.09228,-9.36968 -0.02722,-9.88549 0.141306,-1.12022 0.476545,-1.74894 1.226616,-2.30045 1.267121,-0.93169 3.088124,-0.94796 4.176213,-0.0373 1.035079,0.86628 1.211969,2.02074 1.372949,8.96041 0.219183,9.4488 -0.916168,10.41912 0.443838,9.89092 1.952969,-0.7585 3.669784,-2.62769 6.114926,-6.52965 2.809459,-4.48334 3.835485,-5.79466 4.824303,-6.16573 1.615843,-0.60638 3.58781,0.2561 4.19756,1.83588 0.296652,0.76859 0.166382,2.01858 -0.315203,3.0245 -0.614103,1.28273 -5.552028,9.1998 -6.290317,10.0854 -0.601975,0.72208 -1.264984,1.21016 -3.995881,2.94167 -1.800786,1.1417 -3.296295,2.1766 -3.323354,2.2998 -0.0648,0.295 1.102684,1.7273 3.227275,3.9595 2.255709,2.3698 4.318602,4.6435 4.274078,4.8462 -1.96995,1.614 -7.689916,10.322 -9.54055,8.5168 z"
         id="path11366" />
      <path
         inkscape:connector-curvature="0"
         style="fill:#ffffff;fill-opacity:1;stroke:none"
         d="m 64.825028,1041.0515 c -1.0216,-0.4637 -1.9036,-1.1451 -6.0356,-4.6628 -2.288309,-1.9482 -4.911256,-4.1739 -5.828773,-4.946 l -1.668216,-1.4038 -3.875848,-1.0016 c -10.83941,-2.8011 -14.013811,-3.7079 -16.039128,-4.5817 -0.83234,-0.3592 -2.945443,-2.3523 -2.910153,-2.513 0.01282,-0.058 1.692627,-0.2371 2.991824,-1.6324 5.950502,-5.5249 9.394069,-13.218 15.435148,-18.5681 0.76685,-0.6562 1.085394,-0.7506 2.488705,-0.7381 2.646802,0.024 11.649701,1.0163 14.056241,1.5499 1.7698,0.3924 3.62277,0.7552 4.28478,1.7408 1.30374,1.941 1.08349,4.4237 -0.94756,5.6095 -1.31197,0.766 -3.66125,0.9782 -9.42086,0.3094 -5.161571,-0.5994 -5.711608,-0.5705 -6.894738,0.3632 -0.840749,0.6634 -6.283047,7.5653 -6.405706,8.1237 -0.0459,0.2089 0.914813,0.7072 2.17309,1.1271 0.746566,0.2492 2.844082,0.8792 4.661144,1.4001 3.347444,0.9596 4.686898,1.4214 5.508903,1.8994 0.552817,0.3215 10.891287,9.2907 12.070027,10.4715 1.17198,1.174 1.89601,2.2763 2.01431,3.0668 0.15244,1.0186 -0.37304,2.7857 -1.02316,3.4409 -1.26718,1.2769 -3.08635,1.6479 -4.63443,0.9452 z"
         id="path11368" />
      <path
         inkscape:connector-curvature="0"
         style="fill:#ffffff;fill-opacity:1;stroke:#000000;stroke-width:0.14148083px;stroke-linecap:butt;stroke-linejoin:miter;stroke-opacity:1"
         d="m 94.548688,958.35386 c -2.6503,-0.83126 -84.686385,0 -84.686385,0 0,0 -2.276136,1.09742 -2.627501,2.42539 -0.351366,1.32797 0.423584,3.07275 1.414808,4.44654 0.991224,1.37379 2.320011,3.01815 4.446541,3.23385 2.126531,0.21569 5.005465,-1.00695 6.66981,0.20211 1.664345,1.20906 2.60531,4.79783 4.244425,6.06347 1.639115,1.26563 15.010095,6.37209 16.775585,7.47827 1.76549,1.10618 15.290925,4.64698 16.977697,5.45712 1.68678,0.81013 6.53191,1.72626 8.28674,4.04231 1.75483,2.31605 4.02253,6.61318 4.64865,9.09518 0.62613,2.482 -1.62482,10.2664 0.40424,13.7439 2.02905,3.4775 8.26406,5.7462 11.31628,9.3269 3.05222,3.5807 4.70186,8.8404 5.86353,12.5015 1.16168,3.6612 -0.18288,7.5872 1.61693,9.0952 1.7998,1.5081 4.48116,1.8813 4.85077,0 0.3696,-1.8812 0.0968,-64.36199 -0.20212,-87.11174 z"
         id="path11372" />
    </g>
    <path
       style="fill:#00c851;fill-opacity:0"
       d="M 22.043138,42.267921 C 17.909249,41.745447 14.435572,40.044662 11.477019,37.094527 8.7597777,34.385017 7.1325748,31.31467 6.3527423,27.425602 6.0122982,25.727786 6.0400632,22.056401 6.4058801,20.399172 8.1075144,12.690404 13.899543,7.0879282 21.334923,5.9587046 23.705147,5.5987347 27.724099,5.8469322 28.1302,6.3783591 c 0.203997,0.2669497 0.149087,0.9391033 -0.169873,2.0794891 -0.297142,1.0623723 -0.300126,1.050157 1.204841,4.9338328 0.799435,2.062998 1.707758,4.063473 3.077592,6.77803 2.320578,4.59862 2.458004,4.975654 2.251832,6.177957 -0.180881,1.054816 -0.839837,2.914436 -1.190863,3.360691 -0.141836,0.180316 -0.605793,0.613337 -1.031016,0.962269 -1.320485,1.083572 -2.250454,2.041698 -2.49247,2.567932 -0.313502,0.681675 -0.296848,1.275253 0.09876,3.519833 0.302338,1.715385 0.322263,2.008184 0.195786,2.8771 -0.07744,0.53205 -0.222712,1.163391 -0.322818,1.402977 -0.168052,0.402204 -0.258121,0.455763 -1.174372,0.698334 -0.545799,0.144495 -1.333288,0.324486 -1.749976,0.399979 -1.048597,0.189978 -3.736113,0.263641 -4.784485,0.131138 z m 1.260557,-2.664883 c 0.462336,-0.482575 0.506181,-1.34745 0.25136,-4.95829 -0.226102,-3.203882 -0.08618,-2.703407 -1.562734,-5.58973 -0.431017,-0.84254 -0.783667,-1.594336 -0.783667,-1.67066 0,-0.07632 0.127847,-0.165709 0.284105,-0.198636 0.689601,-0.145317 2.478553,-0.32375 3.24588,-0.32375 0.804822,0 0.855992,0.01884 1.285723,0.473509 0.246147,0.26043 0.718978,0.814435 1.050735,1.231123 1.584744,1.990449 2.317093,2.588516 3.169702,2.588516 0.434156,0 0.616591,-0.07571 0.924598,-0.38372 0.454661,-0.45466 0.611649,-1.109496 0.392706,-1.638071 -0.350232,-0.845531 -3.364027,-4.796803 -4.186733,-5.489064 -0.354787,-0.298535 -0.463354,-0.317663 -1.788555,-0.315131 -0.885278,0.0017 -2.375101,0.142364 -3.999354,0.377631 -2.86785,0.415398 -4.564643,0.478272 -5.244222,0.194327 l -0.437886,-0.182961 0,0.68987 c 0,0.599597 0.104288,0.892035 0.796979,2.234832 0.438339,0.84973 1.34325,2.482512 2.010914,3.628404 l 1.213935,2.083439 0.203857,2.77792 c 0.247185,3.368312 0.361116,4.004455 0.80645,4.502871 0.61338,0.686492 1.691594,0.671715 2.366207,-0.03243 z m -2.501718,-16.33291 c 0.03094,-0.03094 0.10923,-1.010791 0.173984,-2.177453 0.06475,-1.166663 0.157806,-2.161057 0.206781,-2.209767 0.04898,-0.04871 0.770899,0.05807 1.604275,0.237295 l 1.515229,0.325856 1.179323,-0.22189 c 2.460038,-0.462858 3.927852,-0.894806 4.321174,-1.271632 0.706445,-0.676817 0.371825,-1.912502 -0.58278,-2.152093 -0.210488,-0.05283 -1.152378,0.07297 -2.427132,0.324177 -1.472823,0.290236 -2.318465,0.395527 -2.886297,0.359369 -0.741354,-0.04721 -1.038847,-0.124678 -0.947455,-0.356911 0.05263,-0.133727 0.234199,-0.318769 0.534222,-0.578899 0.931608,-0.807735 3.347087,-3.284858 3.792231,-3.889009 0.42932,-0.582676 0.470673,-1.167309 0.114585,-1.62 -0.326453,-0.4150184 -0.920439,-0.6529628 -1.35922,-0.5444893 -0.22262,0.055035 -1.336195,1.0635353 -3.064476,2.7753173 l -2.714785,2.688868 -0.857803,-0.06129 c -1.033487,-0.07384 -1.788586,0.172427 -2.500344,0.815458 -0.682148,0.61628 -0.84141,1.190205 -0.992371,3.576171 -0.195964,3.097244 -0.178969,3.868812 0.08894,4.03777 0.211688,0.133503 4.664282,0.08079 4.801919,-0.05685 z m -1.349382,-9.076035 c 2.285252,-1.205285 1.412102,-4.6163038 -1.184727,-4.6282106 -2.084262,-0.00956 -3.233329,2.4546876 -1.889377,4.0518836 0.724564,0.861096 2.059612,1.111388 3.074104,0.576327 z"
       id="path3367"
       inkscape:connector-curvature="0"
       transform="translate(0,1004.3622)"
       sodipodi:nodetypes="sssssssssssssssssssssssssssssssssscssscssssscscssssssssssscsssssssss" />
    <path
       style="fill:#999999"
       d="m 26.533894,27.898363 c -0.375231,-0.443247 -0.803926,-0.874428 -0.945131,-0.950612 -0.119549,-0.0645 -0.167433,-0.06813 -0.899667,-0.06813 -0.425369,0 -0.983419,0.01963 -1.24011,0.04363 -0.256692,0.02399 -0.473388,0.03695 -0.481548,0.02879 -0.03222,-0.03222 1.512205,-0.163672 1.942629,-0.165342 0.435501,-0.0017 0.466745,0.0024 0.643501,0.08524 0.128592,0.06023 0.265011,0.167116 0.443187,0.347239 0.278786,0.281835 0.82314,0.93365 0.799482,0.957309 -0.008,0.008 -0.126066,-0.117145 -0.262343,-0.278125 z"
       id="path3369"
       inkscape:connector-curvature="0"
       transform="translate(0,1004.3622)" />
    <path
       style="fill:#999999"
       d="m 21.803357,28.824555 c -0.398352,-0.748245 -0.529027,-1.028562 -0.621679,-1.333598 -0.08254,-0.271742 -0.07243,-0.28625 0.237002,-0.340135 0.296367,-0.05161 0.347432,-0.03824 0.100107,0.0262 -0.137695,0.03588 -0.239647,0.08279 -0.275106,0.126579 -0.05265,0.06502 -0.05303,0.07822 -0.0059,0.201604 0.02775,0.07262 0.247557,0.535575 0.488458,1.028795 0.240901,0.49322 0.432398,0.902367 0.425548,0.909217 -0.0068,0.0068 -0.163652,-0.27155 -0.34845,-0.618665 z"
       id="path3371"
       inkscape:connector-curvature="0"
       transform="translate(0,1004.3622)" />
    <path
       style="fill:#999999"
       d="m 21.777383,27.094054 c 0.03927,-0.0076 0.09609,-0.0073 0.126269,6.37e-4 0.03018,0.0079 -0.0019,0.01408 -0.07139,0.01373 -0.06945,-3.5e-4 -0.09414,-0.0068 -0.05487,-0.01437 z"
       id="path3373"
       inkscape:connector-curvature="0"
       transform="translate(0,1004.3622)" />
    <path
       style="fill:#999999"
       d="m 19.590982,23.313105 c 0.45189,-0.04759 1.276357,-0.05938 1.025936,-0.01467 -0.07813,0.01395 -0.43326,0.03268 -0.789181,0.04162 l -0.647129,0.01626 0.410374,-0.04322 z"
       id="path3375"
       inkscape:connector-curvature="0"
       transform="translate(0,1004.3622)" />
    <path
       style="fill:#999999"
       d="m 19.20517,23.354457 c 0.05844,-0.02133 0.126894,-0.02158 0.205187,-7.71e-4 0.111112,0.02954 0.106352,0.03127 -0.0877,0.032 -0.174763,6.56e-4 -0.192184,-0.004 -0.11749,-0.03123 z"
       id="path3377"
       inkscape:connector-curvature="0"
       transform="translate(0,1004.3622)" />
    <path
       style="fill:#999999"
       d=""
       id="path3379"
       inkscape:connector-curvature="0"
       transform="translate(0,1004.3622)" />
    <path
       style="fill:#999999"
       d="m 17.002466,24.127542 c -0.276451,-0.03519 -0.768292,-0.183517 -0.731276,-0.220533 0.0082,-0.0082 0.108306,0.01394 0.222456,0.04919 0.690084,0.213145 2.16695,0.158065 4.590998,-0.171222 0.862894,-0.117218 1.157257,-0.139108 0.589778,-0.04386 -1.111545,0.186568 -2.202717,0.321715 -3.029919,0.375271 -0.477044,0.03089 -1.435856,0.0374 -1.642037,0.01115 z"
       id="path3381"
       inkscape:connector-curvature="0"
       transform="translate(0,1004.3622)" />
    <path
       style="fill:#999999"
       d="m 21.83305,23.717583 c 0.140089,-0.02735 0.163804,-0.04532 0.04998,-0.03786 -0.115189,0.0076 0.186273,-0.03751 0.625244,-0.09345 0.437983,-0.05582 1.038875,-0.123841 1.079772,-0.122231 0.03146,0.0012 0.01262,0.0041 -0.477094,0.07241 -0.156529,0.02183 -0.525669,0.07695 -0.820312,0.122478 -0.535355,0.08272 -0.667803,0.0997 -0.457589,0.05865 z"
       id="path3385"
       inkscape:connector-curvature="0"
       transform="translate(0,1004.3622)" />
    <path
       style="fill:#999999"
       d="m 21.827469,23.71953 c -0.01361,-0.0088 -0.01217,-0.01085 0.0077,-0.01099 0.01345,-9.4e-5 0.02756,0.0049 0.03135,0.01099 0.0088,0.01421 -0.01707,0.01421 -0.03906,0 z"
       id="path3387"
       inkscape:connector-curvature="0"
       transform="translate(0,1004.3622)" />
    <path
       style="fill:#999999"
       d="m 21.849849,23.675159 c -0.01154,-0.0073 -4.06e-4,-0.0096 0.0361,-0.0074 0.02903,0.0017 0.05621,0.0065 0.0604,0.01072 0.01171,0.01171 -0.07759,0.0087 -0.0965,-0.0033 z"
       id="path3389"
       inkscape:connector-curvature="0"
       transform="translate(0,1004.3622)" />
    <path
       style="fill:#00c851;fill-opacity:0;opacity:1"
       d="M 8.6335145,33.482258 C 7.8634942,32.19222 7.2762431,30.843829 6.8290215,29.33895 6.6234717,28.647284 6.406127,27.738649 6.314821,27.189272 6.0733502,25.736373 6.0507638,23.106612 6.2642672,21.303235 6.3365162,20.692978 6.4390319,20.197764 6.6616583,19.383592 6.994758,18.165407 7.3955575,17.104095 7.9945862,15.854016 l 0.076211,-0.15904 4.4224778,0 4.422478,0 -0.106925,0.103237 c -0.528036,0.509819 -0.711052,1.087747 -0.840284,2.65346 -0.05204,0.630489 -0.115718,1.672855 -0.169768,2.779018 -0.01943,0.397689 -0.01931,1.405451 1.97e-4,1.579241 0.03356,0.299046 0.10781,0.478742 0.216546,0.524068 0.04645,0.01936 0.19714,0.03679 0.443647,0.0513 0.268186,0.01579 1.788478,0.02509 2.294336,0.01403 0.366005,-0.008 0.41593,-0.01122 0.43261,-0.02791 0.02108,-0.02109 0.03021,-0.02245 0.319929,-0.04768 0.483132,-0.04208 1.081477,-0.06486 1.121105,-0.04268 0.01625,0.0091 0.0058,0.01289 -0.0509,0.01855 -0.134964,0.01347 -0.451357,0.02832 -0.740966,0.03477 -0.159598,0.0036 -0.322824,0.0094 -0.362723,0.01302 l -0.07255,0.0066 0.04605,0.01379 c 0.02532,0.0076 0.08308,0.01205 0.128348,0.0099 0.04527,-0.0021 0.205349,-0.0092 0.35574,-0.01574 0.455896,-0.01981 0.776956,-0.04973 0.851004,-0.07929 0.01688,-0.0067 0.03069,-0.01322 0.03069,-0.0144 0,-0.0012 0.0072,-0.0571 0.01611,-0.124262 0.03572,-0.27083 0.09053,-1.010933 0.151192,-2.041644 0.06708,-1.139665 0.146921,-2.039674 0.193396,-2.179966 l 0.01359,-0.04102 0.128148,0.0017 c 0.294815,0.0038 0.81193,0.09733 2.245599,0.406103 l 0.744681,0.160386 0.583444,-0.109455 c 0.320894,-0.0602 0.832048,-0.158711 1.135899,-0.218912 2.032398,-0.402674 3.284452,-0.778252 3.723418,-1.116912 0.195157,-0.150563 0.352092,-0.418297 0.41288,-0.704383 0.02608,-0.122753 0.02598,-0.370906 -2.01e-4,-0.49178 -0.102512,-0.473264 -0.397214,-0.818161 -0.838107,-0.980853 -0.09867,-0.03641 -0.103603,-0.03705 -0.279018,-0.0364 -0.38817,0.0015 -1.04675,0.09941 -2.34933,0.349458 -1.216856,0.233587 -1.864591,0.325396 -2.421875,0.343273 -0.409813,0.01315 -0.965908,-0.0437 -1.164965,-0.119085 -0.07759,-0.02939 -0.147701,-0.08878 -0.157511,-0.133454 -0.01883,-0.08574 0.05522,-0.207275 0.242968,-0.39876 l 0.134624,-0.137304 3.393208,0.0028 3.393209,0.0028 0.04707,0.106026 c 0.02589,0.05832 0.110379,0.24894 0.187755,0.42361 0.07738,0.174671 0.146017,0.32088 0.152536,0.324909 0.0065,0.004 0.01142,0.01053 0.0109,0.01445 -0.0034,0.02544 0.0012,0.04117 0.01658,0.05655 0.0096,0.0096 0.01435,0.01754 0.01045,0.01754 -0.0039,0 0.0029,0.01883 0.01508,0.04185 0.0122,0.02302 0.04024,0.08203 0.06233,0.131138 0.02208,0.04911 0.05045,0.108481 0.06304,0.131942 0.01259,0.02346 0.02464,0.05108 0.02677,0.06138 0.0047,0.02256 0.206756,0.454765 0.486223,1.039933 0.112867,0.236328 0.662566,1.346261 1.221553,2.466518 0.558987,1.120257 1.086047,2.182478 1.171244,2.360491 0.802078,1.675894 1.014615,2.332266 0.967007,2.986386 -0.03458,0.475217 -0.168806,1.076912 -0.414674,1.858919 -0.193754,0.61626 -0.417694,1.197682 -0.618406,1.605588 -0.153113,0.311172 -0.184207,0.353768 -0.456728,0.625664 -0.262721,0.262121 -0.45916,0.437808 -0.910801,0.814583 -0.617458,0.515103 -0.924464,0.793315 -1.389963,1.259593 -0.675046,0.676174 -0.930082,1.017235 -1.074944,1.437528 -0.02389,0.06931 -0.04989,0.154903 -0.05778,0.190199 l -0.01435,0.06417 -3.059556,0 -3.059559,0 -0.0251,-0.348772 c -0.100006,-1.389847 -0.190532,-1.756386 -0.681517,-2.759487 -0.08413,-0.171875 -0.26039,-0.520926 -0.391695,-0.77567 -0.131303,-0.254743 -0.360665,-0.704241 -0.509692,-0.998884 -0.149026,-0.294642 -0.271093,-0.532725 -0.271261,-0.529072 -1.67e-4,0.0037 0.06054,0.131723 0.134911,0.284598 0.222343,0.457065 0.345514,0.721932 0.341425,0.734198 -0.01215,0.03644 -0.637701,-1.160328 -0.77676,-1.486046 -0.08876,-0.207899 -0.158999,-0.426859 -0.165805,-0.516861 -0.0053,-0.06978 -0.004,-0.07465 0.025,-0.09749 0.03941,-0.031 0.07746,-0.0415 0.271608,-0.07495 0.168262,-0.02899 0.239001,-0.03475 0.197215,-0.01606 -0.01228,0.0055 -0.05497,0.02017 -0.09487,0.03261 -0.0399,0.01245 -0.05752,0.01977 -0.03916,0.01628 0.486725,-0.09269 1.361987,-0.198616 2.237819,-0.270836 l 0.117188,-0.0097 -0.08929,-0.0014 c -0.04911,-7.59e-4 -0.177176,0.006 -0.284598,0.01506 -0.254509,0.02143 -0.496192,0.03116 -0.418527,0.01683 0.120719,-0.02226 0.751407,-0.08004 1.294643,-0.118609 0.332886,-0.02363 0.920524,-0.02756 1.010044,-0.0068 0.08582,0.01995 0.269871,0.113002 0.362275,0.183158 0.111888,0.08495 0.266055,0.234983 0.444243,0.432338 0.272342,0.301637 0.611648,0.718066 0.597007,0.732708 -0.0064,0.0064 -0.132864,-0.131491 -0.337952,-0.368534 -0.07936,-0.09173 -0.184588,-0.207554 -0.233838,-0.257396 -0.04925,-0.04984 -0.06898,-0.06771 -0.04384,-0.0397 0.244266,0.272146 0.603075,0.698781 0.953305,1.133512 0.881496,1.094174 1.379029,1.635103 1.85094,2.01238 0.328795,0.262862 0.64259,0.424881 0.944692,0.487766 0.118923,0.02475 0.337434,0.03593 0.502232,0.02569 0.303749,-0.01887 0.480589,-0.105435 0.736814,-0.360661 0.143578,-0.143018 0.244192,-0.278292 0.327424,-0.440214 0.120833,-0.235072 0.167351,-0.410164 0.176592,-0.664696 0.01417,-0.390278 -0.07219,-0.604126 -0.518293,-1.283482 -0.977769,-1.488998 -3.051895,-4.127964 -3.693148,-4.698892 -0.402902,-0.358717 -0.509937,-0.381058 -1.774977,-0.370477 -0.443409,0.0037 -0.7535,0.0116 -0.924055,0.02352 -0.972049,0.06794 -1.853869,0.164433 -3.080357,0.337073 -1.942068,0.273367 -2.997617,0.373146 -3.950893,0.37347 -0.502382,1.71e-4 -0.846742,-0.02627 -1.08817,-0.08354 -0.07898,-0.01874 -0.108121,-0.02149 -0.07179,-0.0068 0.04023,0.01628 0.250978,0.05524 0.390632,0.07221 0.749748,0.09111 2.066264,0.01399 3.905485,-0.228773 0.613579,-0.08099 0.942809,-0.122141 1.018648,-0.127332 0.04131,-0.0028 0.07408,-0.0096 0.07283,-0.01511 -0.003,-0.01326 0.467541,-0.07787 1.112245,-0.152711 0.312027,-0.03622 0.340118,-0.0335 0.06748,0.0065 -0.119699,0.01758 -0.433985,0.0648 -0.698414,0.104947 -0.26824,0.04072 -0.497665,0.07038 -0.518973,0.06709 -0.02706,-0.0042 -0.03178,-0.0031 -0.01618,0.0037 0.01966,0.0086 0.01846,0.01028 -0.01116,0.01597 -0.01824,0.0035 -0.03923,0.0014 -0.04663,-0.0048 -0.0074,-0.0061 -0.01747,-0.0087 -0.02237,-0.0056 -0.02897,0.0179 -1.124182,0.182343 -1.682914,0.252681 -1.050646,0.132265 -1.601942,0.170167 -2.488839,0.171107 -0.487456,5.17e-4 -0.585224,-0.0021 -0.680804,-0.01844 -0.230917,-0.03941 -0.584094,-0.139428 -0.658482,-0.186483 -0.04772,-0.03018 -0.01413,-0.02827 0.116035,0.0066 0.05768,0.01545 0.106792,0.02618 0.109137,0.02383 0.0023,-0.0023 -0.01974,-0.01084 -0.04907,-0.01889 -0.02933,-0.008 -0.161314,-0.05948 -0.293289,-0.114299 -0.131976,-0.05482 -0.248745,-0.102255 -0.259487,-0.105406 -0.01836,-0.0054 -0.01953,0.01938 -0.01952,0.411308 1.1e-5,0.634229 0.02136,0.790286 0.158572,1.159226 0.191979,0.516205 0.743713,1.588621 1.713969,3.331473 0.431671,0.775402 0.691415,1.227737 1.57657,2.745536 l 0.572771,0.982142 0.04777,0.641742 c 0.02628,0.352957 0.04797,0.660574 0.04821,0.683593 l 4.35e-4,0.04185 -5.62221,-1.12e-4 -5.6222098,-1.11e-4 -0.1414994,-0.237058 -3.3e-6,9e-6 z M 21.516239,28.087307 c -0.02464,-0.0482 -0.04505,-0.08396 -0.04535,-0.07946 -8.37e-4,0.01229 0.08144,0.175811 0.08611,0.17114 0.0022,-0.0022 -0.01612,-0.04348 -0.04076,-0.09168 z m -0.145033,-0.311623 c -0.09031,-0.196802 -0.157576,-0.362865 -0.157576,-0.389007 0,-0.03661 0.03346,-0.08244 0.08523,-0.116729 0.02889,-0.01914 0.0474,-0.03479 0.04113,-0.03479 -0.01917,0 -0.09817,0.06193 -0.11842,0.09284 -0.03835,0.05852 -0.02651,0.09839 0.125724,0.42356 0.05106,0.109075 0.09454,0.196621 0.09662,0.194547 0.0021,-0.0021 -0.03064,-0.07876 -0.0727,-0.170415 z m 4.730817,-0.36545 c 0,-0.0019 -0.01632,-0.01824 -0.03627,-0.03627 l -0.03627,-0.03278 0.03278,0.03627 c 0.03056,0.03381 0.03976,0.0414 0.03976,0.03278 z m -0.446429,-0.421649 c -0.04698,-0.03849 -0.158787,-0.08646 -0.217634,-0.09338 -0.05211,-0.0061 -0.05023,-0.0048 0.02841,0.01924 0.04632,0.01419 0.111607,0.04165 0.145089,0.06102 0.07132,0.04127 0.08257,0.04461 0.04413,0.01312 z m -1.682477,-0.09633 c -0.01995,-0.0025 -0.0526,-0.0025 -0.07254,0 -0.01995,0.0025 -0.0036,0.0045 0.03627,0.0045 0.0399,0 0.05622,-0.002 0.03627,-0.0045 z"
       id="path3391"
       inkscape:connector-curvature="0"
       transform="translate(0,1004.3622)" />
    <path
       style="fill:#00c851;fill-opacity:0;opacity:1"
       d="M 8.6439471,33.504686 C 7.5862939,31.73298 6.8786426,29.88782 6.4021243,27.659262 6.2194823,26.805091 6.1357323,25.853566 6.1172491,24.422655 6.0963349,22.80355 6.2136969,21.258577 6.4310051,20.292319 6.7683807,18.792181 7.2894892,17.301207 7.9556024,15.930205 l 0.1142882,-0.235229 4.4262224,4.1e-4 4.426222,4.09e-4 -0.07615,0.06852 c -0.09541,0.08585 -0.255796,0.270901 -0.329632,0.380322 -0.352387,0.522214 -0.478567,1.174533 -0.603854,3.121764 -0.106986,1.662812 -0.141094,2.561984 -0.122771,3.236607 0.01138,0.419125 0.02986,0.54274 0.103122,0.690098 0.04063,0.08172 0.0906,0.13023 0.150235,0.145869 0.161481,0.04235 0.782867,0.06774 1.649142,0.0674 0.698416,-2.75e-4 1.468763,-0.0166 1.477859,-0.03132 0.01279,-0.0207 0.103642,-0.03464 0.374819,-0.05752 0.492786,-0.04158 1.099331,-0.06064 1.099331,-0.03454 0,0.02108 -0.26871,0.03919 -0.847517,0.05713 -0.205254,0.0064 -0.375217,0.0136 -0.377698,0.01608 -0.01347,0.01347 0.125208,0.01949 0.297794,0.01293 0.614981,-0.02338 1.043932,-0.06279 1.080438,-0.09927 0.0345,-0.03447 0.08948,-0.698219 0.176315,-2.128453 0.08417,-1.386409 0.159079,-2.191888 0.209485,-2.252622 0.01094,-0.01318 0.03895,-0.01492 0.153023,-0.0095 0.331503,0.01574 0.773866,0.09656 2.184824,0.399193 l 0.784031,0.168164 0.689183,-0.129949 c 1.955367,-0.368696 2.926734,-0.593403 3.797443,-0.878464 0.401406,-0.131417 0.588097,-0.209529 0.798421,-0.334063 0.312557,-0.185068 0.524993,-0.497313 0.575027,-0.845193 0.01959,-0.136187 0.0079,-0.394949 -0.02317,-0.513612 -0.116793,-0.445891 -0.424526,-0.782862 -0.840949,-0.920846 -0.07862,-0.02605 -0.104909,-0.02908 -0.252343,-0.02908 -0.388763,0 -1.001087,0.09 -2.316142,0.340438 -0.993628,0.189224 -1.520412,0.273405 -2.03683,0.325488 -0.242003,0.02441 -0.81694,0.02772 -1.026786,0.0059 -0.308976,-0.0321 -0.506619,-0.07 -0.599471,-0.114953 -0.195542,-0.09466 -0.165392,-0.226848 0.117445,-0.514907 l 0.139844,-0.142427 3.394106,0 3.394106,0 0.04288,0.09766 c 0.02359,0.05371 0.08193,0.188058 0.129659,0.298549 0.132761,0.307363 0.201933,0.457214 0.212942,0.461309 0.0055,0.002 0.01,0.0155 0.01,0.02989 0,0.0144 0.0079,0.03407 0.01754,0.04371 0.0096,0.0096 0.01484,0.01754 0.01154,0.01754 -0.0033,0 0.01309,0.03892 0.03642,0.0865 0.04089,0.08337 0.07266,0.152667 0.185487,0.404575 0.191296,0.427107 0.607271,1.277609 1.501125,3.069197 0.561978,1.126395 1.119049,2.248884 1.237936,2.49442 0.67135,1.386532 0.933239,2.051526 1.03029,2.61613 0.01967,0.114398 0.02417,0.185236 0.02417,0.380521 0,0.275826 -0.02034,0.452214 -0.09464,0.820313 -0.203342,1.007358 -0.756933,2.577161 -1.09027,3.091648 -0.146843,0.226644 -0.503716,0.567025 -1.240236,1.18292 -0.596778,0.49904 -0.935391,0.805573 -1.374347,1.244135 -0.519164,0.518701 -0.817453,0.886251 -0.964851,1.188886 -0.05977,0.122717 -0.135243,0.327577 -0.161387,0.438058 l -0.01387,0.05859 -3.062502,0 c -2.909202,0 -3.062507,-9.82e-4 -3.062575,-0.01953 -1.22e-4,-0.0332 -0.04337,-0.600255 -0.0615,-0.806362 -0.03456,-0.392842 -0.100173,-0.846684 -0.151028,-1.044624 -0.09709,-0.377878 -0.245973,-0.742789 -0.558238,-1.368191 -0.354171,-0.70933 -0.865138,-1.701786 -0.843597,-1.638524 0.0031,0.0092 0.05901,0.129113 0.124153,0.266455 0.06515,0.137343 0.116693,0.254993 0.114541,0.261447 -0.0098,0.02936 -0.540821,-0.965429 -0.72103,-1.350717 -0.106406,-0.227498 -0.190625,-0.447809 -0.230798,-0.603754 -0.05089,-0.197541 -0.03256,-0.214446 0.291982,-0.269324 0.07434,-0.01257 0.1547,-0.02247 0.178572,-0.02199 l 0.0434,8.59e-4 -0.0558,0.02059 c -0.07265,0.0268 -0.05746,0.0269 0.09012,5.58e-4 0.362078,-0.06461 1.110417,-0.154583 1.807197,-0.217265 0.09208,-0.0083 0.143858,-0.01565 0.115071,-0.01637 -0.02879,-7.14e-4 -0.14179,0.0058 -0.251116,0.01453 -0.31166,0.02484 -0.414365,0.0295 -0.38539,0.0175 0.04929,-0.02042 0.612276,-0.07629 1.241302,-0.12319 0.360493,-0.02688 0.949579,-0.04017 1.072494,-0.0242 0.110134,0.01431 0.252874,0.07299 0.374622,0.153994 0.16523,0.109941 0.461563,0.412572 0.804595,0.821693 0.22966,0.273908 0.359274,0.454688 0.257938,0.359761 -0.01925,-0.01803 -0.119943,-0.129459 -0.223771,-0.247623 -0.103827,-0.118165 -0.191256,-0.214844 -0.194285,-0.214844 -0.003,0 0.04147,0.05399 0.09888,0.119977 0.180383,0.207325 0.385158,0.453912 0.68354,0.823103 0.622093,0.769724 0.955004,1.15505 1.305097,1.51057 0.64494,0.65494 1.10582,0.94807 1.600977,1.018255 0.139942,0.01984 0.482789,0.0071 0.600782,-0.02224 0.188463,-0.04693 0.313673,-0.123336 0.503863,-0.307464 0.184991,-0.179095 0.305261,-0.346935 0.400204,-0.558498 0.09697,-0.216069 0.129941,-0.375313 0.129423,-0.625 -7.81e-4,-0.376704 -0.08446,-0.570063 -0.55544,-1.283482 -0.855691,-1.296161 -2.643037,-3.599594 -3.415839,-4.402148 -0.477073,-0.495439 -0.622503,-0.571608 -1.154811,-0.604834 -0.233783,-0.01459 -1.453646,-0.0061 -1.696752,0.01177 -0.341627,0.02515 -0.862428,0.06987 -1.060267,0.09103 -0.113561,0.01215 -0.223207,0.02174 -0.243659,0.02132 -0.02568,-5.29e-4 -0.03469,0.0033 -0.02912,0.01229 0.006,0.0096 -0.0091,0.01146 -0.05768,0.0069 -0.03616,-0.0034 -0.05319,-0.0033 -0.03785,1.9e-4 0.01591,0.0036 -0.09446,0.02457 -0.256696,0.04879 -0.156529,0.02337 -0.505581,0.07617 -0.77567,0.117321 -0.270089,0.04115 -0.521205,0.07595 -0.558036,0.07733 -0.03683,0.0014 -0.207589,0.0255 -0.379464,0.0536 -0.909766,0.148765 -1.906407,0.271525 -2.639509,0.325119 -0.595401,0.04353 -1.639919,0.04995 -1.858259,0.01143 -0.265941,-0.04692 -0.664062,-0.168441 -0.664062,-0.202698 0,-0.0068 0.06815,7.63e-4 0.122767,0.01356 0.01535,0.0036 -0.0851,-0.04071 -0.223214,-0.09845 -0.241306,-0.100881 -0.251488,-0.104074 -0.260626,-0.08172 -0.01622,0.03968 3.41e-4,0.899084 0.02005,1.040402 0.04541,0.325601 0.163623,0.635769 0.503577,1.321308 0.643432,1.297518 1.602822,3.013946 3.402959,6.088179 l 0.09166,0.156537 0.0467,0.652615 c 0.02568,0.358938 0.04821,0.666425 0.05006,0.683306 l 0.0034,0.03069 -5.627263,0 -5.627263,0 -0.1282549,-0.214844 0,10e-6 z M 21.337761,27.707532 c -0.01316,-0.02263 -0.01633,-0.01538 -0.0056,0.01268 0.0038,0.01 0.0093,0.01579 0.01218,0.01291 0.0029,-0.0029 -1.12e-4,-0.01439 -0.0066,-0.02559 z m 4.987476,-0.05166 c 0,-0.0019 -0.01883,-0.0207 -0.04185,-0.04185 l -0.04185,-0.03846 0.03846,0.04185 c 0.0358,0.03896 0.04524,0.04699 0.04524,0.03846 z m -5.037742,-0.0598 c -0.0094,-0.01742 -0.01737,-0.02815 -0.01761,-0.02383 -7.59e-4,0.01327 0.02521,0.06508 0.03014,0.06015 0.0026,-0.0026 -0.0031,-0.0189 -0.01253,-0.03632 z m -0.03936,-0.09423 c -0.01197,-0.02698 -0.02212,-0.04539 -0.02255,-0.04091 -0.0013,0.01321 0.03508,0.09922 0.03991,0.09439 0.0024,-0.0024 -0.0054,-0.0265 -0.01735,-0.05348 z m -0.03793,-0.129763 c -0.0028,-0.01086 -0.0053,-0.0047 -0.0056,0.01374 -2.23e-4,0.01842 0.0021,0.0273 0.0051,0.01974 0.0031,-0.0076 0.0032,-0.02262 4.13e-4,-0.03348 l 1e-6,0 z m 4.43423,-0.387654 c 0,-0.0029 -0.0113,-0.01066 -0.02511,-0.01736 -0.02411,-0.01169 -0.02425,-0.01148 -0.0034,0.0052 0.02277,0.01824 0.02856,0.02071 0.02856,0.01217 z m -0.08929,-0.05062 c -0.02148,-0.01176 -0.0466,-0.02146 -0.0558,-0.02156 -0.0092,-1.11e-4 0.0033,0.0093 0.0279,0.02095 0.05837,0.02762 0.07802,0.02805 0.0279,6.14e-4 l 0,-3e-6 z m -1.782924,-0.0302 c -0.01381,-0.0027 -0.03641,-0.0027 -0.05022,0 -0.01381,0.0027 -0.0025,0.0048 0.02511,0.0048 0.02762,0 0.03892,-0.0022 0.02511,-0.0048 z m 1.701777,0.0011 c -0.0037,-0.0037 -0.01334,-0.0041 -0.02139,-8.82e-4 -0.0089,0.0036 -0.0063,0.0062 0.0067,0.0067 0.01177,4.79e-4 0.01836,-0.0022 0.01465,-0.0059 l 0,1e-6 z M 17.650572,24.08014 c -0.01074,-0.0028 -0.02832,-0.0028 -0.03906,0 -0.01074,0.0028 -0.002,0.0051 0.01953,0.0051 0.02148,0 0.03027,-0.0023 0.01953,-0.0051 z m -0.211616,-0.0117 c -0.03506,-0.0022 -0.09532,-0.0022 -0.133929,-4.4e-5 -0.03861,0.0022 -0.0099,0.004 0.06374,0.004 0.07366,2.3e-5 0.105247,-0.0018 0.07019,-0.004 l 0,4e-6 z m 0.691527,-4.4e-5 c -0.04144,-0.0021 -0.109236,-0.0021 -0.15067,0 -0.04143,0.0021 -0.0075,0.0039 0.07533,0.0039 0.08287,0 0.116769,-0.0018 0.07534,-0.0039 z m -0.943081,-0.01096 c -0.01995,-0.0025 -0.0526,-0.0025 -0.07254,0 -0.01995,0.0025 -0.0036,0.0045 0.03627,0.0045 0.0399,0 0.05622,-0.002 0.03627,-0.0045 z m 1.205357,-1e-4 c -0.02609,-0.0023 -0.06878,-0.0023 -0.09487,0 -0.02609,0.0024 -0.0047,0.0043 0.04743,0.0043 0.05218,0 0.07352,-0.0019 0.04743,-0.0043 z m -1.350446,-0.01086 c -0.01381,-0.0027 -0.03641,-0.0027 -0.05022,0 -0.01381,0.0027 -0.0025,0.0048 0.02511,0.0048 0.02762,0 0.03892,-0.0022 0.02511,-0.0048 z m 1.540179,-1.98e-4 c -0.01995,-0.0025 -0.0526,-0.0025 -0.07254,0 -0.01995,0.0025 -0.0036,0.0045 0.03627,0.0045 0.0399,0 0.05622,-0.002 0.03627,-0.0045 z m -1.646206,-0.01078 c -0.01074,-0.0028 -0.02832,-0.0028 -0.03906,0 -0.01074,0.0028 -0.002,0.0051 0.01953,0.0051 0.02148,0 0.03027,-0.0023 0.01953,-0.0051 z m 1.819396,-2.81e-4 c -0.01677,-0.0025 -0.0469,-0.0026 -0.06696,-1.14e-4 -0.02006,0.0025 -0.0063,0.0046 0.03049,0.0046 0.03683,6.7e-5 0.05324,-0.002 0.03647,-0.0045 z m -1.903101,-0.01057 c -0.0077,-0.0031 -0.02023,-0.0031 -0.0279,0 -0.0077,0.0031 -0.0014,0.0056 0.01395,0.0056 0.01535,0 0.02162,-0.0025 0.01395,-0.0056 z m 2.053724,-4.65e-4 c -0.01373,-0.0026 -0.03884,-0.0027 -0.0558,-1.52e-4 -0.01696,0.0026 -0.0057,0.0047 0.02496,0.0048 0.03069,8.9e-5 0.04457,-0.002 0.03084,-0.0047 l 0,-10e-7 z m -2.126501,-0.01005 c -0.0037,-0.0037 -0.01333,-0.0041 -0.02139,-8.81e-4 -0.0089,0.0036 -0.0063,0.0062 0.0067,0.0067 0.01177,4.84e-4 0.01836,-0.0022 0.01465,-0.0059 l 0,0 z m 2.260277,-0.0011 c -0.01381,-0.0027 -0.03641,-0.0027 -0.05022,0 -0.01381,0.0027 -0.0025,0.0048 0.02511,0.0048 0.02762,0 0.03892,-0.0022 0.02511,-0.0048 z m -2.327242,-0.01003 c -0.0037,-0.0037 -0.01333,-0.0041 -0.02139,-8.81e-4 -0.0089,0.0036 -0.0063,0.0062 0.0067,0.0067 0.01176,4.84e-4 0.01836,-0.0022 0.01465,-0.0059 l 0,0 z m 2.455721,-9.26e-4 c -0.01067,-0.0028 -0.03076,-0.0029 -0.04464,-2.25e-4 -0.01388,0.0027 -0.0052,0.005 0.0194,0.0051 0.02455,1.24e-4 0.03591,-0.0021 0.02524,-0.0049 l 0,0 z m 0.122768,-0.01116 c -0.01067,-0.0028 -0.03076,-0.0029 -0.04464,-2.26e-4 -0.01388,0.0027 -0.0052,0.005 0.0194,0.0051 0.02455,1.24e-4 0.03591,-0.0021 0.02524,-0.0049 l 0,1e-6 z m 0.122767,-0.01116 c -0.01067,-0.0028 -0.03076,-0.0029 -0.04464,-2.26e-4 -0.01388,0.0027 -0.0052,0.005 0.0194,0.0051 0.02455,1.24e-4 0.03591,-0.0021 0.02524,-0.0049 l 0,0 z m 0.111608,-0.01116 c -0.01067,-0.0028 -0.03076,-0.0029 -0.04464,-2.25e-4 -0.01388,0.0027 -0.0052,0.005 0.0194,0.0051 0.02455,1.24e-4 0.03591,-0.0021 0.02524,-0.0049 l 0,0 z m 0.111607,-0.01116 c -0.01067,-0.0028 -0.03076,-0.0029 -0.04464,-2.25e-4 -0.01388,0.0027 -0.0052,0.005 0.0194,0.0051 0.02455,1.24e-4 0.03591,-0.0021 0.02524,-0.0049 l 0,0 z m 0.100316,-0.01119 c -0.01074,-0.0028 -0.02832,-0.0028 -0.03906,0 -0.01074,0.0028 -0.002,0.0051 0.01953,0.0051 0.02148,0 0.03027,-0.0023 0.01953,-0.0051 z m 0.100446,-0.01116 c -0.01074,-0.0028 -0.02832,-0.0028 -0.03906,0 -0.01074,0.0028 -0.002,0.0051 0.01953,0.0051 0.02148,0 0.03027,-0.0023 0.01953,-0.0051 z m 0.100446,-0.01116 c -0.01074,-0.0028 -0.02832,-0.0028 -0.03906,0 -0.01074,0.0028 -0.002,0.0051 0.01953,0.0051 0.02148,0 0.03027,-0.0023 0.01953,-0.0051 z m 0.100447,-0.01116 c -0.01074,-0.0028 -0.02832,-0.0028 -0.03906,0 -0.01074,0.0028 -0.002,0.0051 0.01953,0.0051 0.02148,0 0.03027,-0.0023 0.01953,-0.0051 z m 0.100446,-0.01116 c -0.01074,-0.0028 -0.02832,-0.0028 -0.03906,0 -0.01074,0.0028 -0.002,0.0051 0.01953,0.0051 0.02148,0 0.03027,-0.0023 0.01953,-0.0051 z m 0.08929,-0.01116 c -0.01074,-0.0028 -0.02832,-0.0028 -0.03906,0 -0.01074,0.0028 -0.002,0.0051 0.01953,0.0051 0.02148,0 0.03027,-0.0023 0.01953,-0.0051 z m 0.100446,-0.01116 c -0.01074,-0.0028 -0.02832,-0.0028 -0.03906,0 -0.01074,0.0028 -0.002,0.0051 0.01953,0.0051 0.02148,0 0.03027,-0.0023 0.01953,-0.0051 z m 0.08929,-0.01116 c -0.01074,-0.0028 -0.02832,-0.0028 -0.03906,0 -0.01074,0.0028 -0.002,0.0051 0.01953,0.0051 0.02148,0 0.03027,-0.0023 0.01953,-0.0051 z m 0.08929,-0.01116 c -0.01074,-0.0028 -0.02832,-0.0028 -0.03906,0 -0.01074,0.0028 -0.002,0.0051 0.01953,0.0051 0.02148,0 0.03027,-0.0023 0.01953,-0.0051 z m 0.08929,-0.01116 c -0.01074,-0.0028 -0.02832,-0.0028 -0.03906,0 -0.01074,0.0028 -0.002,0.0051 0.01953,0.0051 0.02148,0 0.03027,-0.0023 0.01953,-0.0051 z m 0.08929,-0.01116 c -0.01074,-0.0028 -0.02832,-0.0028 -0.03906,0 -0.01074,0.0028 -0.002,0.0051 0.01953,0.0051 0.02148,0 0.03027,-0.0023 0.01953,-0.0051 z m 0.07813,-0.01116 c -0.01074,-0.0028 -0.02832,-0.0028 -0.03906,0 -0.01074,0.0028 -0.002,0.0051 0.01953,0.0051 0.02148,0 0.03027,-0.0023 0.01953,-0.0051 z m 0.08929,-0.01116 c -0.01074,-0.0028 -0.02832,-0.0028 -0.03906,0 -0.01074,0.0028 -0.002,0.0051 0.01953,0.0051 0.02148,0 0.03027,-0.0023 0.01953,-0.0051 z m 0.08942,-0.01114 c -0.01067,-0.0028 -0.03076,-0.0029 -0.04464,-2.25e-4 -0.01388,0.0027 -0.0052,0.005 0.0194,0.0051 0.02455,1.24e-4 0.03591,-0.0021 0.02524,-0.0049 l 0,0 z m 0.078,-0.01119 c -0.01074,-0.0028 -0.02832,-0.0028 -0.03906,0 -0.01074,0.0028 -0.002,0.0051 0.01953,0.0051 0.02148,0 0.03027,-0.0023 0.01953,-0.0051 z m 0.08942,-0.01114 c -0.01067,-0.0028 -0.03076,-0.0029 -0.04464,-2.25e-4 -0.01388,0.0027 -0.0052,0.005 0.0194,0.0051 0.02455,1.23e-4 0.03591,-0.0021 0.02524,-0.0049 l 0,0 z m 0.07799,-0.01119 c -0.01074,-0.0028 -0.02832,-0.0028 -0.03906,0 -0.01074,0.0028 -0.002,0.0051 0.01953,0.0051 0.02148,0 0.03027,-0.0023 0.01953,-0.0051 z m 0.332032,-0.03736 c 0.159598,-0.01895 0.305245,-0.03865 0.32366,-0.04378 l 0.03348,-0.0093 -0.03906,-6.27e-4 c -0.03843,-6.17e-4 -0.64118,0.08373 -0.61942,0.08668 0.0061,8.33e-4 0.141741,-0.01399 0.30134,-0.03294 l 0,0 z m 0.466172,-0.07387 c -0.0076,-0.0031 -0.02262,-0.0032 -0.03348,-4.14e-4 -0.01086,0.0028 -0.0047,0.0053 0.01374,0.0056 0.01841,2.28e-4 0.0273,-0.0021 0.01974,-0.0051 l 0,1e-6 z m 0.06675,-0.01123 c -0.0077,-0.0031 -0.02023,-0.0031 -0.0279,0 -0.0077,0.0031 -0.0014,0.0056 0.01395,0.0056 0.01535,0 0.02162,-0.0025 0.01395,-0.0056 z m 0.07813,-0.01116 c -0.0077,-0.0031 -0.02023,-0.0031 -0.0279,0 -0.0077,0.0031 -0.0014,0.0056 0.01395,0.0056 0.01535,0 0.02162,-0.0025 0.01395,-0.0056 z m 0.07813,-0.01116 c -0.0077,-0.0031 -0.02023,-0.0031 -0.0279,0 -0.0077,0.0031 -0.0014,0.0056 0.01395,0.0056 0.01535,0 0.02162,-0.0025 0.01395,-0.0056 z m 0.08929,-0.01116 c -0.0077,-0.0031 -0.02023,-0.0031 -0.0279,0 -0.0077,0.0031 -0.0014,0.0056 0.01395,0.0056 0.01535,0 0.02162,-0.0025 0.01395,-0.0056 z m 0.08929,-0.01116 c -0.0077,-0.0031 -0.02023,-0.0031 -0.0279,0 -0.0077,0.0031 -0.0014,0.0056 0.01395,0.0056 0.01535,0 0.02162,-0.0025 0.01395,-0.0056 z m 0.08347,-0.01051 c -0.0037,-0.0037 -0.01333,-0.0041 -0.02139,-8.8e-4 -0.0089,0.0036 -0.0063,0.0062 0.0067,0.0067 0.01176,4.85e-4 0.01836,-0.0022 0.01465,-0.0059 l 0,-10e-7 z m 0.08394,-0.01181 c -0.0077,-0.0031 -0.02023,-0.0031 -0.0279,0 -0.0077,0.0031 -0.0014,0.0056 0.01395,0.0056 0.01535,0 0.02162,-0.0025 0.01395,-0.0056 z m 0.08929,-0.01116 c -0.0077,-0.0031 -0.02023,-0.0031 -0.0279,0 -0.0077,0.0031 -0.0014,0.0056 0.01395,0.0056 0.01535,0 0.02162,-0.0025 0.01395,-0.0056 z m 0.100446,-0.01116 c -0.0077,-0.0031 -0.02023,-0.0031 -0.0279,0 -0.0077,0.0031 -0.0014,0.0056 0.01395,0.0056 0.01535,0 0.02162,-0.0025 0.01395,-0.0056 z m 0.08929,-0.01116 c -0.0077,-0.0031 -0.02023,-0.0031 -0.0279,0 -0.0077,0.0031 -0.0014,0.0056 0.01395,0.0056 0.01535,0 0.02162,-0.0025 0.01395,-0.0056 z m 0.08929,-0.01116 c -0.0077,-0.0031 -0.02023,-0.0031 -0.0279,0 -0.0077,0.0031 -0.0014,0.0056 0.01395,0.0056 0.01535,0 0.02162,-0.0025 0.01395,-0.0056 z m 0.100659,-0.01109 c -0.0076,-0.0031 -0.02262,-0.0032 -0.03348,-4.14e-4 -0.01086,0.0028 -0.0047,0.0053 0.01374,0.0056 0.01842,2.27e-4 0.0273,-0.0021 0.01974,-0.0051 l 0,0 z m 0.08907,-0.01123 c -0.0077,-0.0031 -0.02023,-0.0031 -0.0279,0 -0.0077,0.0031 -0.0014,0.0056 0.01395,0.0056 0.01535,0 0.02162,-0.0025 0.01395,-0.0056 z m 0.100446,-0.01116 c -0.0077,-0.0031 -0.02023,-0.0031 -0.0279,0 -0.0077,0.0031 -0.0014,0.0056 0.01395,0.0056 0.01535,0 0.02162,-0.0025 0.01395,-0.0056 z m 0.111819,-0.01109 c -0.0076,-0.0031 -0.02262,-0.0032 -0.03348,-4.14e-4 -0.01086,0.0028 -0.0047,0.0053 0.01374,0.0056 0.01842,2.28e-4 0.0273,-0.0021 0.01974,-0.0051 l 0,10e-7 z"
       id="path3393"
       inkscape:connector-curvature="0"
       transform="translate(0,1004.3622)" />
    <path
       style="fill:#00c851;fill-opacity:0"
       d="M 22.580722,42.324852 C 18.395206,41.985119 14.444168,40.137809 11.425267,37.109111 8.6265468,34.301307 6.8810953,30.828394 6.2333612,26.778812 6.0345741,25.536011 6.0330846,22.639865 6.2305664,21.344573 6.8546705,17.251044 8.7717923,13.537185 11.723058,10.70449 c 1.477683,-1.4183169 2.7934,-2.3347932 4.589716,-3.1970174 3.497872,-1.6789632 7.231332,-2.1755181 10.982175,-1.4606431 0.743125,0.1416325 0.784501,0.1620143 0.923487,0.4549045 0.165239,0.3482152 0.141906,0.5587794 -0.18993,1.713979 -0.377852,1.3153917 -0.384603,1.2867541 1.295583,5.494931 1.211007,3.033075 1.232069,3.078522 3.661986,7.901786 1.732742,3.439407 1.797019,3.685873 1.38811,5.322628 -0.330053,1.321116 -0.810812,2.492483 -1.199749,2.923184 -0.175001,0.193792 -0.766789,0.728385 -1.315083,1.187986 -1.205044,1.010112 -1.773077,1.624345 -2.051161,2.217988 -0.295677,0.631199 -0.278538,1.496004 0.06716,3.388597 0.333908,1.828074 0.330114,3.034486 -0.01299,4.130856 -0.198843,0.635388 -0.207464,0.646321 -0.612819,0.777254 -1.947997,0.629219 -4.594069,0.932333 -6.668813,0.763929 z m 0.235747,-2.386529 c 0.798301,-0.405562 0.845432,-0.550917 0.832332,-2.566964 -0.01256,-1.933239 -0.250214,-5.113788 -0.425667,-5.696773 -0.06484,-0.215459 -0.391627,-0.910219 -0.726185,-1.543913 -1.064295,-2.015904 -1.292275,-2.486144 -1.314966,-2.712293 -0.02173,-0.216522 -0.0012,-0.223818 1.04927,-0.373446 0.589285,-0.08394 1.557008,-0.181273 2.150493,-0.216307 l 1.079066,-0.06369 0.37877,0.342196 c 0.208324,0.188208 0.834903,0.91105 1.392397,1.606315 1.560408,1.946021 2.302934,2.523071 3.127068,2.430179 0.637098,-0.07181 1.17522,-0.62922 1.266831,-1.312239 0.08621,-0.642763 -0.540718,-1.6669 -2.60437,-4.254419 -1.444793,-1.811562 -1.797227,-2.14884 -2.32867,-2.228536 -0.739118,-0.110837 -2.625986,0.0358 -4.750755,0.369202 -2.693304,0.422613 -4.945906,0.517588 -5.561906,0.234505 l -0.398924,-0.183326 -0.02856,0.506632 c -0.03569,0.633175 0.07204,0.999291 0.608743,2.068794 0.395471,0.788066 2.03012,3.695589 2.971338,5.285069 l 0.406525,0.686518 0.18995,2.527768 c 0.307538,4.092574 0.400976,4.570678 0.97127,4.969771 0.60098,0.420568 1.067242,0.454523 1.715946,0.124961 z m -2.326288,-16.661187 0.3125,-0.01431 0.0636,-0.802877 c 0.03498,-0.441583 0.0994,-1.417742 0.14315,-2.169242 0.04375,-0.7515 0.115581,-1.401066 0.159617,-1.443477 0.04526,-0.04359 0.766441,0.06488 1.658942,0.249503 l 1.578876,0.326617 1.055052,-0.210508 c 1.788752,-0.356898 3.762126,-0.879447 4.092681,-1.083742 0.392991,-0.242881 0.57854,-0.592127 0.578108,-1.088132 -4.46e-4,-0.47281 -0.249426,-0.904139 -0.637976,-1.105067 -0.372866,-0.192816 -0.944825,-0.1412 -3.022404,0.272757 -1.028005,0.20483 -1.80684,0.310143 -2.276786,0.307866 -0.719571,-0.0035 -1.299793,-0.136484 -1.356592,-0.310955 -0.01689,-0.0519 0.392898,-0.467902 0.910649,-0.924455 1.004297,-0.885587 3.071804,-3.020024 3.528806,-3.643041 0.372576,-0.50792 0.448944,-0.810961 0.30782,-1.221464 C 27.432016,9.9680595 27.239077,9.7722366 26.777741,9.5960511 25.987963,9.294432 26.008621,9.2797556 22.988627,12.28794 l -2.72477,2.714113 -0.562262,-0.09055 c -1.467083,-0.236267 -3.03939,0.573737 -3.44939,1.777022 -0.154004,0.451979 -0.258623,1.537646 -0.408257,4.23666 -0.107112,1.932023 -0.07763,2.263408 0.212679,2.390878 0.156865,0.06888 2.534987,0.048 4.433554,-0.03893 z m -1.367494,-8.925963 c 0.60995,-0.224881 1.069241,-0.646156 1.369569,-1.256211 0.262562,-0.533339 0.285767,-0.645522 0.246547,-1.191892 -0.07238,-1.008393 -0.56925,-1.72744 -1.482621,-2.1455947 -0.390855,-0.1789395 -0.582895,-0.2119597 -1.071972,-0.1843191 -0.928222,0.052459 -1.592911,0.4521068 -2.055204,1.2357028 -0.209594,0.355267 -0.237039,0.49559 -0.237039,1.211976 0,0.744885 0.02159,0.844942 0.267857,1.241307 0.315821,0.508315 0.780707,0.905003 1.261384,1.076344 0.419269,0.149452 1.312463,0.156112 1.701479,0.01269 z"
       id="path4180"
       inkscape:connector-curvature="0"
       transform="translate(0,1004.3622)" />
    <path
       style="fill:#00c851;fill-opacity:0"
       d="M 22.580722,42.324852 C 18.395206,41.985119 14.444168,40.137809 11.425267,37.109111 8.6265468,34.301307 6.8810953,30.828394 6.2333612,26.778812 6.0345741,25.536011 6.0330846,22.639865 6.2305664,21.344573 6.8546705,17.251044 8.7717923,13.537185 11.723058,10.70449 c 1.477683,-1.4183169 2.7934,-2.3347932 4.589716,-3.1970174 3.497872,-1.6789632 7.231332,-2.1755181 10.982175,-1.4606431 0.743125,0.1416325 0.784501,0.1620143 0.923487,0.4549045 0.165239,0.3482152 0.141906,0.5587794 -0.18993,1.713979 -0.377852,1.3153917 -0.384603,1.2867541 1.295583,5.494931 1.211007,3.033075 1.232069,3.078522 3.661986,7.901786 1.732742,3.439407 1.797019,3.685873 1.38811,5.322628 -0.330053,1.321116 -0.810812,2.492483 -1.199749,2.923184 -0.175001,0.193792 -0.766789,0.728385 -1.315083,1.187986 -1.205044,1.010112 -1.773077,1.624345 -2.051161,2.217988 -0.295677,0.631199 -0.278538,1.496004 0.06716,3.388597 0.333908,1.828074 0.330114,3.034486 -0.01299,4.130856 -0.198843,0.635388 -0.207464,0.646321 -0.612819,0.777254 -1.947997,0.629219 -4.594069,0.932333 -6.668813,0.763929 z m 0.235747,-2.386529 c 0.798301,-0.405562 0.845432,-0.550917 0.832332,-2.566964 -0.01256,-1.933239 -0.250214,-5.113788 -0.425667,-5.696773 -0.06484,-0.215459 -0.391627,-0.910219 -0.726185,-1.543913 -1.064295,-2.015904 -1.292275,-2.486144 -1.314966,-2.712293 -0.02173,-0.216522 -0.0012,-0.223818 1.04927,-0.373446 0.589285,-0.08394 1.557008,-0.181273 2.150493,-0.216307 l 1.079066,-0.06369 0.37877,0.342196 c 0.208324,0.188208 0.834903,0.91105 1.392397,1.606315 1.560408,1.946021 2.302934,2.523071 3.127068,2.430179 0.637098,-0.07181 1.17522,-0.62922 1.266831,-1.312239 0.08621,-0.642763 -0.540718,-1.6669 -2.60437,-4.254419 -1.444793,-1.811562 -1.797227,-2.14884 -2.32867,-2.228536 -0.739118,-0.110837 -2.625986,0.0358 -4.750755,0.369202 -2.693304,0.422613 -4.945906,0.517588 -5.561906,0.234505 l -0.398924,-0.183326 -0.02856,0.506632 c -0.03569,0.633175 0.07204,0.999291 0.608743,2.068794 0.395471,0.788066 2.03012,3.695589 2.971338,5.285069 l 0.406525,0.686518 0.18995,2.527768 c 0.307538,4.092574 0.400976,4.570678 0.97127,4.969771 0.60098,0.420568 1.067242,0.454523 1.715946,0.124961 z m -2.326288,-16.661187 0.3125,-0.01431 0.0636,-0.802877 c 0.03498,-0.441583 0.0994,-1.417742 0.14315,-2.169242 0.04375,-0.7515 0.115581,-1.401066 0.159617,-1.443477 0.04526,-0.04359 0.766441,0.06488 1.658942,0.249503 l 1.578876,0.326617 1.055052,-0.210508 c 1.788752,-0.356898 3.762126,-0.879447 4.092681,-1.083742 0.392991,-0.242881 0.57854,-0.592127 0.578108,-1.088132 -4.46e-4,-0.47281 -0.249426,-0.904139 -0.637976,-1.105067 -0.372866,-0.192816 -0.944825,-0.1412 -3.022404,0.272757 -1.028005,0.20483 -1.80684,0.310143 -2.276786,0.307866 -0.719571,-0.0035 -1.299793,-0.136484 -1.356592,-0.310955 -0.01689,-0.0519 0.392898,-0.467902 0.910649,-0.924455 1.004297,-0.885587 3.071804,-3.020024 3.528806,-3.643041 0.372576,-0.50792 0.448944,-0.810961 0.30782,-1.221464 C 27.432016,9.9680595 27.239077,9.7722366 26.777741,9.5960511 25.987963,9.294432 26.008621,9.2797556 22.988627,12.28794 l -2.72477,2.714113 -0.562262,-0.09055 c -1.467083,-0.236267 -3.03939,0.573737 -3.44939,1.777022 -0.154004,0.451979 -0.258623,1.537646 -0.408257,4.23666 -0.107112,1.932023 -0.07763,2.263408 0.212679,2.390878 0.156865,0.06888 2.534987,0.048 4.433554,-0.03893 z m -1.367494,-8.925963 c 0.60995,-0.224881 1.069241,-0.646156 1.369569,-1.256211 0.262562,-0.533339 0.285767,-0.645522 0.246547,-1.191892 -0.07238,-1.008393 -0.56925,-1.72744 -1.482621,-2.1455947 -0.390855,-0.1789395 -0.582895,-0.2119597 -1.071972,-0.1843191 -0.928222,0.052459 -1.592911,0.4521068 -2.055204,1.2357028 -0.209594,0.355267 -0.237039,0.49559 -0.237039,1.211976 0,0.744885 0.02159,0.844942 0.267857,1.241307 0.315821,0.508315 0.780707,0.905003 1.261384,1.076344 0.419269,0.149452 1.312463,0.156112 1.701479,0.01269 z"
       id="path4182"
       inkscape:connector-curvature="0"
       transform="translate(0,1004.3622)" />
    <path
       style="fill:#00c851;fill-opacity:0"
       d="M 22.580722,42.324852 C 18.395206,41.985119 14.444168,40.137809 11.425267,37.109111 8.6265468,34.301307 6.8810953,30.828394 6.2333612,26.778812 6.0345741,25.536011 6.0330846,22.639865 6.2305664,21.344573 6.8546705,17.251044 8.7717923,13.537185 11.723058,10.70449 c 1.477683,-1.4183169 2.7934,-2.3347932 4.589716,-3.1970174 3.497872,-1.6789632 7.231332,-2.1755181 10.982175,-1.4606431 0.743125,0.1416325 0.784501,0.1620143 0.923487,0.4549045 0.165239,0.3482152 0.141906,0.5587794 -0.18993,1.713979 -0.377852,1.3153917 -0.384603,1.2867541 1.295583,5.494931 1.211007,3.033075 1.232069,3.078522 3.661986,7.901786 1.732742,3.439407 1.797019,3.685873 1.38811,5.322628 -0.330053,1.321116 -0.810812,2.492483 -1.199749,2.923184 -0.175001,0.193792 -0.766789,0.728385 -1.315083,1.187986 -1.205044,1.010112 -1.773077,1.624345 -2.051161,2.217988 -0.295677,0.631199 -0.278538,1.496004 0.06716,3.388597 0.333908,1.828074 0.330114,3.034486 -0.01299,4.130856 -0.198843,0.635388 -0.207464,0.646321 -0.612819,0.777254 -1.947997,0.629219 -4.594069,0.932333 -6.668813,0.763929 z m 0.235747,-2.386529 c 0.798301,-0.405562 0.845432,-0.550917 0.832332,-2.566964 -0.01256,-1.933239 -0.250214,-5.113788 -0.425667,-5.696773 -0.06484,-0.215459 -0.391627,-0.910219 -0.726185,-1.543913 -1.064295,-2.015904 -1.292275,-2.486144 -1.314966,-2.712293 -0.02173,-0.216522 -0.0012,-0.223818 1.04927,-0.373446 0.589285,-0.08394 1.557008,-0.181273 2.150493,-0.216307 l 1.079066,-0.06369 0.37877,0.342196 c 0.208324,0.188208 0.834903,0.91105 1.392397,1.606315 1.560408,1.946021 2.302934,2.523071 3.127068,2.430179 0.637098,-0.07181 1.17522,-0.62922 1.266831,-1.312239 0.08621,-0.642763 -0.540718,-1.6669 -2.60437,-4.254419 -1.444793,-1.811562 -1.797227,-2.14884 -2.32867,-2.228536 -0.739118,-0.110837 -2.625986,0.0358 -4.750755,0.369202 -2.693304,0.422613 -4.945906,0.517588 -5.561906,0.234505 l -0.398924,-0.183326 -0.02856,0.506632 c -0.03569,0.633175 0.07204,0.999291 0.608743,2.068794 0.395471,0.788066 2.03012,3.695589 2.971338,5.285069 l 0.406525,0.686518 0.18995,2.527768 c 0.307538,4.092574 0.400976,4.570678 0.97127,4.969771 0.60098,0.420568 1.067242,0.454523 1.715946,0.124961 z m -2.326288,-16.661187 0.3125,-0.01431 0.0636,-0.802877 c 0.03498,-0.441583 0.0994,-1.417742 0.14315,-2.169242 0.04375,-0.7515 0.115581,-1.401066 0.159617,-1.443477 0.04526,-0.04359 0.766441,0.06488 1.658942,0.249503 l 1.578876,0.326617 1.055052,-0.210508 c 1.788752,-0.356898 3.762126,-0.879447 4.092681,-1.083742 0.392991,-0.242881 0.57854,-0.592127 0.578108,-1.088132 -4.46e-4,-0.47281 -0.249426,-0.904139 -0.637976,-1.105067 -0.372866,-0.192816 -0.944825,-0.1412 -3.022404,0.272757 -1.028005,0.20483 -1.80684,0.310143 -2.276786,0.307866 -0.719571,-0.0035 -1.299793,-0.136484 -1.356592,-0.310955 -0.01689,-0.0519 0.392898,-0.467902 0.910649,-0.924455 1.004297,-0.885587 3.071804,-3.020024 3.528806,-3.643041 0.372576,-0.50792 0.448944,-0.810961 0.30782,-1.221464 C 27.432016,9.9680595 27.239077,9.7722366 26.777741,9.5960511 25.987963,9.294432 26.008621,9.2797556 22.988627,12.28794 l -2.72477,2.714113 -0.562262,-0.09055 c -1.467083,-0.236267 -3.03939,0.573737 -3.44939,1.777022 -0.154004,0.451979 -0.258623,1.537646 -0.408257,4.23666 -0.107112,1.932023 -0.07763,2.263408 0.212679,2.390878 0.156865,0.06888 2.534987,0.048 4.433554,-0.03893 z m -1.367494,-8.925963 c 0.60995,-0.224881 1.069241,-0.646156 1.369569,-1.256211 0.262562,-0.533339 0.285767,-0.645522 0.246547,-1.191892 -0.07238,-1.008393 -0.56925,-1.72744 -1.482621,-2.1455947 -0.390855,-0.1789395 -0.582895,-0.2119597 -1.071972,-0.1843191 -0.928222,0.052459 -1.592911,0.4521068 -2.055204,1.2357028 -0.209594,0.355267 -0.237039,0.49559 -0.237039,1.211976 0,0.744885 0.02159,0.844942 0.267857,1.241307 0.315821,0.508315 0.780707,0.905003 1.261384,1.076344 0.419269,0.149452 1.312463,0.156112 1.701479,0.01269 z"
       id="path4184"
       inkscape:connector-curvature="0"
       transform="translate(0,1004.3622)" />
    <path
       style="fill:#00c851;fill-opacity:0"
       d="M 22.580722,42.324852 C 18.395206,41.985119 14.444168,40.137809 11.425267,37.109111 8.6265468,34.301307 6.8810953,30.828394 6.2333612,26.778812 6.0345741,25.536011 6.0330846,22.639865 6.2305664,21.344573 6.8546705,17.251044 8.7717923,13.537185 11.723058,10.70449 c 1.477683,-1.4183169 2.7934,-2.3347932 4.589716,-3.1970174 3.497872,-1.6789632 7.231332,-2.1755181 10.982175,-1.4606431 0.743125,0.1416325 0.784501,0.1620143 0.923487,0.4549045 0.165239,0.3482152 0.141906,0.5587794 -0.18993,1.713979 -0.377852,1.3153917 -0.384603,1.2867541 1.295583,5.494931 1.211007,3.033075 1.232069,3.078522 3.661986,7.901786 1.732742,3.439407 1.797019,3.685873 1.38811,5.322628 -0.330053,1.321116 -0.810812,2.492483 -1.199749,2.923184 -0.175001,0.193792 -0.766789,0.728385 -1.315083,1.187986 -1.205044,1.010112 -1.773077,1.624345 -2.051161,2.217988 -0.295677,0.631199 -0.278538,1.496004 0.06716,3.388597 0.333908,1.828074 0.330114,3.034486 -0.01299,4.130856 -0.198843,0.635388 -0.207464,0.646321 -0.612819,0.777254 -1.947997,0.629219 -4.594069,0.932333 -6.668813,0.763929 z m 0.235747,-2.386529 c 0.798301,-0.405562 0.845432,-0.550917 0.832332,-2.566964 -0.01256,-1.933239 -0.250214,-5.113788 -0.425667,-5.696773 -0.06484,-0.215459 -0.391627,-0.910219 -0.726185,-1.543913 -1.064295,-2.015904 -1.292275,-2.486144 -1.314966,-2.712293 -0.02173,-0.216522 -0.0012,-0.223818 1.04927,-0.373446 0.589285,-0.08394 1.557008,-0.181273 2.150493,-0.216307 l 1.079066,-0.06369 0.37877,0.342196 c 0.208324,0.188208 0.834903,0.91105 1.392397,1.606315 1.560408,1.946021 2.302934,2.523071 3.127068,2.430179 0.637098,-0.07181 1.17522,-0.62922 1.266831,-1.312239 0.08621,-0.642763 -0.540718,-1.6669 -2.60437,-4.254419 -1.444793,-1.811562 -1.797227,-2.14884 -2.32867,-2.228536 -0.739118,-0.110837 -2.625986,0.0358 -4.750755,0.369202 -2.693304,0.422613 -4.945906,0.517588 -5.561906,0.234505 l -0.398924,-0.183326 -0.02856,0.506632 c -0.03569,0.633175 0.07204,0.999291 0.608743,2.068794 0.395471,0.788066 2.03012,3.695589 2.971338,5.285069 l 0.406525,0.686518 0.18995,2.527768 c 0.307538,4.092574 0.400976,4.570678 0.97127,4.969771 0.60098,0.420568 1.067242,0.454523 1.715946,0.124961 z m -2.326288,-16.661187 0.3125,-0.01431 0.0636,-0.802877 c 0.03498,-0.441583 0.0994,-1.417742 0.14315,-2.169242 0.04375,-0.7515 0.115581,-1.401066 0.159617,-1.443477 0.04526,-0.04359 0.766441,0.06488 1.658942,0.249503 l 1.578876,0.326617 1.055052,-0.210508 c 1.788752,-0.356898 3.762126,-0.879447 4.092681,-1.083742 0.392991,-0.242881 0.57854,-0.592127 0.578108,-1.088132 -4.46e-4,-0.47281 -0.249426,-0.904139 -0.637976,-1.105067 -0.372866,-0.192816 -0.944825,-0.1412 -3.022404,0.272757 -1.028005,0.20483 -1.80684,0.310143 -2.276786,0.307866 -0.719571,-0.0035 -1.299793,-0.136484 -1.356592,-0.310955 -0.01689,-0.0519 0.392898,-0.467902 0.910649,-0.924455 1.004297,-0.885587 3.071804,-3.020024 3.528806,-3.643041 0.372576,-0.50792 0.448944,-0.810961 0.30782,-1.221464 C 27.432016,9.9680595 27.239077,9.7722366 26.777741,9.5960511 25.987963,9.294432 26.008621,9.2797556 22.988627,12.28794 l -2.72477,2.714113 -0.562262,-0.09055 c -1.467083,-0.236267 -3.03939,0.573737 -3.44939,1.777022 -0.154004,0.451979 -0.258623,1.537646 -0.408257,4.23666 -0.107112,1.932023 -0.07763,2.263408 0.212679,2.390878 0.156865,0.06888 2.534987,0.048 4.433554,-0.03893 z m -1.367494,-8.925963 c 0.60995,-0.224881 1.069241,-0.646156 1.369569,-1.256211 0.262562,-0.533339 0.285767,-0.645522 0.246547,-1.191892 -0.07238,-1.008393 -0.56925,-1.72744 -1.482621,-2.1455947 -0.390855,-0.1789395 -0.582895,-0.2119597 -1.071972,-0.1843191 -0.928222,0.052459 -1.592911,0.4521068 -2.055204,1.2357028 -0.209594,0.355267 -0.237039,0.49559 -0.237039,1.211976 0,0.744885 0.02159,0.844942 0.267857,1.241307 0.315821,0.508315 0.780707,0.905003 1.261384,1.076344 0.419269,0.149452 1.312463,0.156112 1.701479,0.01269 z"
       id="path4186"
       inkscape:connector-curvature="0"
       transform="translate(0,1004.3622)" />
    <path
       style="fill:#00c851;fill-opacity:0"
       d="M 22.580722,42.324852 C 18.395206,41.985119 14.444168,40.137809 11.425267,37.109111 8.6265468,34.301307 6.8810953,30.828394 6.2333612,26.778812 6.0345741,25.536011 6.0330846,22.639865 6.2305664,21.344573 6.8546705,17.251044 8.7717923,13.537185 11.723058,10.70449 c 1.477683,-1.4183169 2.7934,-2.3347932 4.589716,-3.1970174 3.497872,-1.6789632 7.231332,-2.1755181 10.982175,-1.4606431 0.743125,0.1416325 0.784501,0.1620143 0.923487,0.4549045 0.165239,0.3482152 0.141906,0.5587794 -0.18993,1.713979 -0.377852,1.3153917 -0.384603,1.2867541 1.295583,5.494931 1.211007,3.033075 1.232069,3.078522 3.661986,7.901786 1.732742,3.439407 1.797019,3.685873 1.38811,5.322628 -0.330053,1.321116 -0.810812,2.492483 -1.199749,2.923184 -0.175001,0.193792 -0.766789,0.728385 -1.315083,1.187986 -1.205044,1.010112 -1.773077,1.624345 -2.051161,2.217988 -0.295677,0.631199 -0.278538,1.496004 0.06716,3.388597 0.333908,1.828074 0.330114,3.034486 -0.01299,4.130856 -0.198843,0.635388 -0.207464,0.646321 -0.612819,0.777254 -1.947997,0.629219 -4.594069,0.932333 -6.668813,0.763929 z m 0.235747,-2.386529 c 0.798301,-0.405562 0.845432,-0.550917 0.832332,-2.566964 -0.01256,-1.933239 -0.250214,-5.113788 -0.425667,-5.696773 -0.06484,-0.215459 -0.391627,-0.910219 -0.726185,-1.543913 -1.064295,-2.015904 -1.292275,-2.486144 -1.314966,-2.712293 -0.02173,-0.216522 -0.0012,-0.223818 1.04927,-0.373446 0.589285,-0.08394 1.557008,-0.181273 2.150493,-0.216307 l 1.079066,-0.06369 0.37877,0.342196 c 0.208324,0.188208 0.834903,0.91105 1.392397,1.606315 1.560408,1.946021 2.302934,2.523071 3.127068,2.430179 0.637098,-0.07181 1.17522,-0.62922 1.266831,-1.312239 0.08621,-0.642763 -0.540718,-1.6669 -2.60437,-4.254419 -1.444793,-1.811562 -1.797227,-2.14884 -2.32867,-2.228536 -0.739118,-0.110837 -2.625986,0.0358 -4.750755,0.369202 -2.693304,0.422613 -4.945906,0.517588 -5.561906,0.234505 l -0.398924,-0.183326 -0.02856,0.506632 c -0.03569,0.633175 0.07204,0.999291 0.608743,2.068794 0.395471,0.788066 2.03012,3.695589 2.971338,5.285069 l 0.406525,0.686518 0.18995,2.527768 c 0.307538,4.092574 0.400976,4.570678 0.97127,4.969771 0.60098,0.420568 1.067242,0.454523 1.715946,0.124961 z m -2.326288,-16.661187 0.3125,-0.01431 0.0636,-0.802877 c 0.03498,-0.441583 0.0994,-1.417742 0.14315,-2.169242 0.04375,-0.7515 0.115581,-1.401066 0.159617,-1.443477 0.04526,-0.04359 0.766441,0.06488 1.658942,0.249503 l 1.578876,0.326617 1.055052,-0.210508 c 1.788752,-0.356898 3.762126,-0.879447 4.092681,-1.083742 0.392991,-0.242881 0.57854,-0.592127 0.578108,-1.088132 -4.46e-4,-0.47281 -0.249426,-0.904139 -0.637976,-1.105067 -0.372866,-0.192816 -0.944825,-0.1412 -3.022404,0.272757 -1.028005,0.20483 -1.80684,0.310143 -2.276786,0.307866 -0.719571,-0.0035 -1.299793,-0.136484 -1.356592,-0.310955 -0.01689,-0.0519 0.392898,-0.467902 0.910649,-0.924455 1.004297,-0.885587 3.071804,-3.020024 3.528806,-3.643041 0.372576,-0.50792 0.448944,-0.810961 0.30782,-1.221464 C 27.432016,9.9680595 27.239077,9.7722366 26.777741,9.5960511 25.987963,9.294432 26.008621,9.2797556 22.988627,12.28794 l -2.72477,2.714113 -0.562262,-0.09055 c -1.467083,-0.236267 -3.03939,0.573737 -3.44939,1.777022 -0.154004,0.451979 -0.258623,1.537646 -0.408257,4.23666 -0.107112,1.932023 -0.07763,2.263408 0.212679,2.390878 0.156865,0.06888 2.534987,0.048 4.433554,-0.03893 z m -1.367494,-8.925963 c 0.60995,-0.224881 1.069241,-0.646156 1.369569,-1.256211 0.262562,-0.533339 0.285767,-0.645522 0.246547,-1.191892 -0.07238,-1.008393 -0.56925,-1.72744 -1.482621,-2.1455947 -0.390855,-0.1789395 -0.582895,-0.2119597 -1.071972,-0.1843191 -0.928222,0.052459 -1.592911,0.4521068 -2.055204,1.2357028 -0.209594,0.355267 -0.237039,0.49559 -0.237039,1.211976 0,0.744885 0.02159,0.844942 0.267857,1.241307 0.315821,0.508315 0.780707,0.905003 1.261384,1.076344 0.419269,0.149452 1.312463,0.156112 1.701479,0.01269 z"
       id="path4188"
       inkscape:connector-curvature="0"
       transform="translate(0,1004.3622)" />
    <path
       style="fill:#00c851;fill-opacity:0;opacity:1"
       d="M 24.195312 2.0488281 C 22.468355 2.0403894 21.214386 2.1494599 19.865234 2.4238281 C 10.601 4.3078349 3.7440129 11.775872 2.4941406 21.34375 C 2.2735967 23.032031 2.3517103 26.123902 2.6601562 27.863281 C 3.4696445 32.428124 5.5550321 36.474202 8.75 39.6875 C 12.25731 43.214933 16.679704 45.37381 21.650391 45.982422 C 22.863048 46.1309 26.103751 46.035153 27.400391 45.8125 C 31.950439 45.031184 35.929465 42.975774 39.152344 39.742188 C 40.935939 37.952665 42.139429 36.255872 43.304688 33.888672 C 44.445443 31.571247 45.114924 29.369034 45.443359 26.847656 C 45.60582 25.600463 45.628558 22.942571 45.488281 21.65625 C 44.657343 14.036662 40.020295 7.4235559 33.212891 4.1484375 C 30.227425 2.7120964 27.446925 2.0647171 24.195312 2.0488281 z M 24.246094 5.6835938 C 25.210844 5.6992484 26.182361 5.768376 26.875 5.8847656 C 27.513393 5.9920398 28.175781 6.1026923 28.347656 6.1308594 C 28.872746 6.216912 30.477443 6.7847538 31.347656 7.1914062 C 33.310445 8.1086227 34.82876 9.1623763 36.412109 10.710938 C 38.123642 12.384868 39.470292 14.302085 40.363281 16.335938 C 43.463047 23.395903 42.079186 31.458758 36.835938 36.902344 C 36.275101 37.48461 35.512824 38.207206 35.140625 38.507812 C 32.576361 40.578844 29.279541 41.95794 26.025391 42.320312 C 22.180591 42.748459 18.306178 41.951092 15.132812 40.078125 C 10.203129 37.168553 7.0272718 32.437722 6.1523438 26.701172 C 5.9482991 25.363318 5.9446028 22.753145 6.1445312 21.417969 C 6.5262345 18.868852 7.4608692 16.294799 8.7480469 14.246094 C 11.686856 9.5686083 16.295554 6.5523147 21.650391 5.8007812 C 22.321964 5.7065282 23.281343 5.6679391 24.246094 5.6835938 z M 23.501953 5.7324219 C 23.09207 5.7439052 22.689108 5.7716467 22.294922 5.8144531 C 17.531346 6.3317511 13.369894 8.5454223 10.34375 12.171875 C 4.6075405 19.046 4.6261853 29.115233 10.386719 35.994141 C 13.424723 39.621957 17.896449 41.944055 22.580078 42.324219 C 24.654822 42.492623 27.302003 42.189766 29.25 41.560547 C 29.655355 41.429614 29.664438 41.418591 29.863281 40.783203 C 30.206385 39.686833 30.208908 38.480418 29.875 36.652344 C 29.542346 34.831151 29.512426 33.815773 29.775391 33.236328 C 29.996501 32.749111 30.816281 31.890009 31.962891 30.945312 C 32.453963 30.540716 33.002114 30.050106 33.179688 29.853516 C 33.555918 29.436992 34.042672 28.248713 34.375 26.935547 C 34.642579 25.878216 34.654285 25.375277 34.427734 24.716797 C 34.156491 23.928416 33.219229 21.976486 32.222656 20.123047 C 30.984474 17.820257 30.457232 16.753574 30.267578 16.166016 C 30.180398 15.895926 29.707164 14.671038 29.216797 13.443359 C 27.658019 9.5408282 27.654802 9.5185518 28.029297 8.2148438 C 28.361133 7.0596442 28.383989 6.8501683 28.21875 6.5019531 C 28.079764 6.2090629 28.038047 6.1885075 27.294922 6.046875 C 26.020036 5.8038935 24.731601 5.6979719 23.501953 5.7324219 z M 26.277344 9.4667969 C 26.433657 9.4635851 26.579899 9.5202984 26.777344 9.5957031 C 27.23868 9.7718886 27.431729 9.9674611 27.585938 10.416016 C 27.727062 10.826519 27.651873 11.130752 27.279297 11.638672 C 26.822295 12.261689 24.754297 14.395663 23.75 15.28125 C 23.232249 15.737803 22.822954 16.153178 22.839844 16.205078 C 22.89621 16.378216 23.474262 16.512478 24.185547 16.517578 C 24.668654 16.521037 25.445121 16.411169 26.662109 16.166016 C 27.637216 15.969587 28.661105 15.808594 28.9375 15.808594 C 29.400325 15.808594 29.466854 15.836013 29.779297 16.148438 C 30.364943 16.7341 30.363504 17.401384 29.777344 17.958984 C 29.398536 18.319336 29.132358 18.406451 26.5625 18.992188 C 24.716252 19.412994 24.123344 19.418892 22.455078 19.037109 C 21.702282 18.864827 21.220519 18.793153 21.167969 18.845703 C 21.121741 18.891932 21.049903 19.624481 21.007812 20.472656 C 20.965719 21.320832 20.902287 22.294922 20.867188 22.638672 L 20.802734 23.263672 L 19.955078 23.320312 C 18.093663 23.442813 16.591259 23.47772 16.316406 23.40625 C 15.732663 23.254465 15.726072 23.235957 15.794922 21.748047 C 15.829038 21.010771 15.912909 19.617378 15.980469 18.652344 C 16.089253 17.098568 16.128311 16.847491 16.326172 16.457031 C 16.8816 15.360948 18.341248 14.693099 19.701172 14.912109 L 20.263672 15.001953 L 22.988281 12.287109 C 25.253277 10.030971 25.808404 9.4764322 26.277344 9.4667969 z M 18.183594 9.5722656 C 18.672671 9.544625 18.865004 9.578873 19.255859 9.7578125 C 20.16923 10.175967 20.665901 10.893951 20.738281 11.902344 C 20.777501 12.448714 20.754749 12.562364 20.492188 13.095703 C 20.19186 13.705758 19.732997 14.126682 19.123047 14.351562 C 18.734031 14.494985 17.841144 14.487343 17.421875 14.337891 C 16.941198 14.16655 16.475977 13.770034 16.160156 13.261719 C 15.913889 12.865354 15.892578 12.766369 15.892578 12.021484 C 15.892578 11.305098 15.919312 11.163861 16.128906 10.808594 C 16.591199 10.024998 17.255372 9.6247246 18.183594 9.5722656 z M 26.412109 23.324219 C 26.731007 23.339902 26.963656 23.372647 27.066406 23.425781 C 27.400559 23.598578 28.087062 24.369413 29.451172 26.103516 C 31.586718 28.818297 31.911376 29.503243 31.474609 30.359375 C 31.130165 31.034548 30.286275 31.345675 29.589844 31.054688 C 29.104041 30.851706 28.243956 29.995658 27.140625 28.623047 C 25.792018 26.9453 25.695409 26.86045 25.113281 26.8125 C 24.670875 26.77606 21.534179 27.095732 21.244141 27.207031 C 21.030809 27.288894 21.19424 27.670062 22.416016 29.917969 C 22.777122 30.582353 23.133221 31.298613 23.207031 31.507812 C 23.38735 32.01889 23.638131 35.354421 23.650391 37.416016 C 23.662079 39.381808 23.61114 39.53375 22.816406 39.9375 C 22.296902 40.201424 22.027237 40.231448 21.605469 40.066406 C 20.942312 39.806908 20.659668 39.469236 20.498047 38.748047 C 20.448397 38.526498 20.304104 37.002316 20.175781 35.359375 L 19.941406 32.371094 L 19.042969 30.808594 C 17.43743 28.017689 16.349318 26.042551 16.142578 25.541016 C 15.997153 25.188226 15.940953 24.867384 15.939453 24.402344 C 15.938283 24.046317 15.951513 23.755859 15.970703 23.755859 C 15.989893 23.755859 16.182415 23.834501 16.396484 23.931641 C 17.12859 24.263843 18.988639 24.165525 22.320312 23.619141 C 23.714703 23.390465 25.455417 23.27717 26.412109 23.324219 z "
       transform="translate(0,1004.3622)"
       id="path4190" />
    <path
       style="opacity:1;fill:#00c851;fill-opacity:0"
       d="M 22.580722,42.324852 C 17.897093,41.944688 13.423788,39.622783 10.385784,35.994967 4.6252505,29.116059 4.6074395,19.045226 10.343649,12.171101 13.369793,8.5446483 17.531122,6.3310242 22.294698,5.8137262 c 1.576744,-0.1712257 3.300403,-0.090872 5.000251,0.2331033 0.743125,0.1416325 0.784501,0.1620143 0.923487,0.4549045 0.165239,0.3482152 0.141906,0.5587794 -0.18993,1.713979 -0.374495,1.3037081 -0.369756,1.3245428 1.189022,5.227074 0.490367,1.227679 0.962907,2.453125 1.050087,2.723215 0.189654,0.587558 0.716565,1.654177 1.954747,3.956967 0.996573,1.853439 1.933566,3.805907 2.204809,4.594288 0.226551,0.65848 0.214529,1.161215 -0.05305,2.218546 -0.332328,1.313166 -0.818774,2.500649 -1.195005,2.917173 -0.177573,0.19659 -0.724645,0.688469 -1.215717,1.093065 -1.14661,0.944696 -1.966125,1.802675 -2.187235,2.289892 -0.262965,0.579445 -0.233464,1.595687 0.09919,3.41688 0.333908,1.828074 0.330114,3.034486 -0.01299,4.130856 -0.198843,0.635388 -0.207464,0.646321 -0.612819,0.777254 -1.947997,0.629219 -4.594069,0.932333 -6.668813,0.763929 z m 0.235747,-2.386529 c 0.794734,-0.40375 0.845222,-0.556529 0.833534,-2.522321 -0.01226,-2.061595 -0.262002,-5.397973 -0.442321,-5.90905 -0.07381,-0.209199 -0.429648,-0.92395 -0.790754,-1.588334 -1.221776,-2.247907 -1.386908,-2.629403 -1.173576,-2.711266 0.290038,-0.111299 3.426935,-0.4319 3.869341,-0.39546 0.582128,0.04795 0.678761,0.134319 2.027368,1.812066 1.103331,1.372611 1.964833,2.226771 2.450636,2.429753 0.696431,0.290988 1.539204,-0.02007 1.883648,-0.695243 0.436767,-0.856132 0.11152,-1.539815 -2.024026,-4.254596 -1.36411,-1.734103 -2.050234,-2.504521 -2.384387,-2.677318 -0.411001,-0.212537 -2.886206,-0.111832 -4.745394,0.193069 -3.331674,0.546384 -5.192822,0.644477 -5.924928,0.312275 -0.214069,-0.09714 -0.404917,-0.176611 -0.424107,-0.176611 -0.01919,0 -0.03394,0.291295 -0.03277,0.647322 0.0015,0.46504 0.05912,0.785603 0.204545,1.138393 0.20674,0.501535 1.294082,2.476952 2.899621,5.267857 l 0.898868,1.5625 0.233315,2.987165 c 0.128323,1.642941 0.273938,3.168432 0.323588,3.389981 0.161621,0.721189 0.44443,1.057456 1.107587,1.316954 0.421768,0.165042 0.690712,0.136788 1.210216,-0.127136 z m -2.862002,-16.618285 0.848214,-0.05582 0.06383,-0.625 c 0.0351,-0.34375 0.09826,-1.318963 0.140353,-2.167139 0.04209,-0.848175 0.114351,-1.579962 0.160579,-1.626191 0.05255,-0.05255 0.535423,0.01924 1.288219,0.191522 1.668266,0.381783 2.259704,0.375216 4.105952,-0.04559 2.569858,-0.585736 2.83779,-0.671702 3.216598,-1.032054 0.58616,-0.5576 0.58645,-1.226009 8.04e-4,-1.811672 -0.312443,-0.312425 -0.378964,-0.339233 -0.841789,-0.339233 -0.276395,0 -1.300353,0.160714 -2.27546,0.357143 -1.216988,0.245153 -1.99361,0.355562 -2.476717,0.352103 -0.711285,-0.0051 -1.289734,-0.139395 -1.3461,-0.312533 -0.01689,-0.0519 0.392898,-0.467902 0.910649,-0.924455 1.004297,-0.885587 3.071804,-3.020024 3.528806,-3.643041 0.372576,-0.50792 0.448944,-0.810961 0.30782,-1.221464 C 27.432016,9.9680595 27.239077,9.7722366 26.777741,9.5960511 25.987963,9.294432 26.008621,9.2797556 22.988627,12.28794 l -2.72477,2.714113 -0.562262,-0.09055 c -1.359924,-0.21901 -2.819461,0.44934 -3.374889,1.545423 -0.197861,0.39046 -0.237497,0.641762 -0.346281,2.195538 -0.06756,0.965034 -0.150758,2.357833 -0.184874,3.095109 -0.06885,1.48791 -0.06267,1.507587 0.521073,1.659372 0.274853,0.07147 1.776428,0.03559 3.637843,-0.08691 z m -0.83178,-8.968865 c 0.60995,-0.224881 1.069241,-0.646156 1.369569,-1.256211 0.262562,-0.533339 0.285767,-0.645522 0.246547,-1.191892 -0.07238,-1.008393 -0.56925,-1.72744 -1.482621,-2.1455947 -0.390855,-0.1789395 -0.582895,-0.2119597 -1.071972,-0.1843191 -0.928222,0.052459 -1.592911,0.4521068 -2.055204,1.2357028 -0.209594,0.355267 -0.237039,0.49559 -0.237039,1.211976 0,0.744885 0.02159,0.844942 0.267857,1.241307 0.315821,0.508315 0.780707,0.905003 1.261384,1.076344 0.419269,0.149452 1.312463,0.156112 1.701479,0.01269 z"
       id="path4195"
       inkscape:connector-curvature="0"
       transform="translate(0,1004.3622)" />
    <path
       style="opacity:1;fill:#00c851;fill-opacity:0"
       d="M 22.580722,42.324852 C 17.897093,41.944688 13.423788,39.622783 10.385784,35.994967 4.6252505,29.116059 4.6074395,19.045226 10.343649,12.171101 13.369793,8.5446483 17.531122,6.3310242 22.294698,5.8137262 c 1.576744,-0.1712257 3.300403,-0.090872 5.000251,0.2331033 0.743125,0.1416325 0.784501,0.1620143 0.923487,0.4549045 0.165239,0.3482152 0.141906,0.5587794 -0.18993,1.713979 -0.374495,1.3037081 -0.369756,1.3245428 1.189022,5.227074 0.490367,1.227679 0.962907,2.453125 1.050087,2.723215 0.189654,0.587558 0.716565,1.654177 1.954747,3.956967 0.996573,1.853439 1.933566,3.805907 2.204809,4.594288 0.226551,0.65848 0.214529,1.161215 -0.05305,2.218546 -0.332328,1.313166 -0.818774,2.500649 -1.195005,2.917173 -0.177573,0.19659 -0.724645,0.688469 -1.215717,1.093065 -1.14661,0.944696 -1.966125,1.802675 -2.187235,2.289892 -0.262965,0.579445 -0.233464,1.595687 0.09919,3.41688 0.333908,1.828074 0.330114,3.034486 -0.01299,4.130856 -0.198843,0.635388 -0.207464,0.646321 -0.612819,0.777254 -1.947997,0.629219 -4.594069,0.932333 -6.668813,0.763929 z m 0.235747,-2.386529 c 0.794734,-0.40375 0.845222,-0.556529 0.833534,-2.522321 -0.01226,-2.061595 -0.262002,-5.397973 -0.442321,-5.90905 -0.07381,-0.209199 -0.429648,-0.92395 -0.790754,-1.588334 -1.221776,-2.247907 -1.386908,-2.629403 -1.173576,-2.711266 0.290038,-0.111299 3.426935,-0.4319 3.869341,-0.39546 0.582128,0.04795 0.678761,0.134319 2.027368,1.812066 1.103331,1.372611 1.964833,2.226771 2.450636,2.429753 0.696431,0.290988 1.539204,-0.02007 1.883648,-0.695243 0.436767,-0.856132 0.11152,-1.539815 -2.024026,-4.254596 -1.36411,-1.734103 -2.050234,-2.504521 -2.384387,-2.677318 -0.411001,-0.212537 -2.886206,-0.111832 -4.745394,0.193069 -3.331674,0.546384 -5.192822,0.644477 -5.924928,0.312275 -0.214069,-0.09714 -0.404917,-0.176611 -0.424107,-0.176611 -0.01919,0 -0.03394,0.291295 -0.03277,0.647322 0.0015,0.46504 0.05912,0.785603 0.204545,1.138393 0.20674,0.501535 1.294082,2.476952 2.899621,5.267857 l 0.898868,1.5625 0.233315,2.987165 c 0.128323,1.642941 0.273938,3.168432 0.323588,3.389981 0.161621,0.721189 0.44443,1.057456 1.107587,1.316954 0.421768,0.165042 0.690712,0.136788 1.210216,-0.127136 z m -2.862002,-16.618285 0.848214,-0.05582 0.06383,-0.625 c 0.0351,-0.34375 0.09826,-1.318963 0.140353,-2.167139 0.04209,-0.848175 0.114351,-1.579962 0.160579,-1.626191 0.05255,-0.05255 0.535423,0.01924 1.288219,0.191522 1.668266,0.381783 2.259704,0.375216 4.105952,-0.04559 2.569858,-0.585736 2.83779,-0.671702 3.216598,-1.032054 0.58616,-0.5576 0.58645,-1.226009 8.04e-4,-1.811672 -0.312443,-0.312425 -0.378964,-0.339233 -0.841789,-0.339233 -0.276395,0 -1.300353,0.160714 -2.27546,0.357143 -1.216988,0.245153 -1.99361,0.355562 -2.476717,0.352103 -0.711285,-0.0051 -1.289734,-0.139395 -1.3461,-0.312533 -0.01689,-0.0519 0.392898,-0.467902 0.910649,-0.924455 1.004297,-0.885587 3.071804,-3.020024 3.528806,-3.643041 0.372576,-0.50792 0.448944,-0.810961 0.30782,-1.221464 C 27.432016,9.9680595 27.239077,9.7722366 26.777741,9.5960511 25.987963,9.294432 26.008621,9.2797556 22.988627,12.28794 l -2.72477,2.714113 -0.562262,-0.09055 c -1.359924,-0.21901 -2.819461,0.44934 -3.374889,1.545423 -0.197861,0.39046 -0.237497,0.641762 -0.346281,2.195538 -0.06756,0.965034 -0.150758,2.357833 -0.184874,3.095109 -0.06885,1.48791 -0.06267,1.507587 0.521073,1.659372 0.274853,0.07147 1.776428,0.03559 3.637843,-0.08691 z m -0.83178,-8.968865 c 0.60995,-0.224881 1.069241,-0.646156 1.369569,-1.256211 0.262562,-0.533339 0.285767,-0.645522 0.246547,-1.191892 -0.07238,-1.008393 -0.56925,-1.72744 -1.482621,-2.1455947 -0.390855,-0.1789395 -0.582895,-0.2119597 -1.071972,-0.1843191 -0.928222,0.052459 -1.592911,0.4521068 -2.055204,1.2357028 -0.209594,0.355267 -0.237039,0.49559 -0.237039,1.211976 0,0.744885 0.02159,0.844942 0.267857,1.241307 0.315821,0.508315 0.780707,0.905003 1.261384,1.076344 0.419269,0.149452 1.312463,0.156112 1.701479,0.01269 z"
       id="path4197"
       inkscape:connector-curvature="0"
       transform="translate(0,1004.3622)" />
    <path
       style="opacity:1;fill:#00c851;fill-opacity:0"
       d="M 23.154392,42.394621 C 19.182112,42.192528 15.461157,40.697904 12.37417,38.064454 11.944111,37.697579 10.800133,36.545118 10.425058,36.100888 9.711864,35.256198 8.982267,34.218857 8.4734899,33.326148 6.369262,29.634031 5.5762139,25.267002 6.250603,21.085516 6.9774886,16.578529 9.3207298,12.514097 12.841886,9.6527112 l 0.278312,-0.226164 7.329905,0 7.329905,0 0.07322,0.307556 c 0.105693,0.4439678 0.341107,1.0706218 1.360881,3.6225688 0.499534,1.250064 0.960925,2.436204 1.025313,2.635867 0.06439,0.199663 0.154414,0.46246 0.200059,0.583994 0.124949,0.332693 0.8451,1.743042 1.768568,3.463579 0.915654,1.705978 1.162444,2.186897 1.300231,2.533757 0.05128,0.129091 0.198352,0.444799 0.326826,0.701573 0.567792,1.134818 0.809773,1.844837 0.809773,2.376033 0,0.756799 -0.647713,2.888273 -1.175924,3.869696 -0.166839,0.309989 -0.460706,0.610015 -1.126539,1.150147 -1.579013,1.280915 -2.038222,1.725662 -2.419144,2.342956 -0.236524,0.38329 -0.304336,0.645681 -0.321665,1.244642 -0.01795,0.620324 0.02338,0.963765 0.265304,2.204995 0.287666,1.47589 0.308392,1.640304 0.306398,2.43068 -0.0016,0.651075 -0.0078,0.722683 -0.09811,1.14572 -0.053,0.248183 -0.164729,0.665713 -0.248292,0.927846 -0.175007,0.548989 -0.106471,0.485365 -0.725341,0.673354 -1.122628,0.341018 -2.323857,0.574869 -3.563842,0.693802 -0.496223,0.04759 -1.918113,0.08298 -2.383328,0.05931 z m -0.62952,-2.325326 c 0.252128,-0.08595 0.523328,-0.245104 0.726739,-0.426477 0.36893,-0.328961 0.489888,-0.926801 0.4356,-2.15297 -0.05231,-1.181474 -0.264571,-4.455047 -0.343843,-5.302858 -0.01702,-0.182057 -0.05972,-0.417463 -0.09488,-0.523125 -0.09161,-0.275284 -0.448391,-0.989178 -1.053218,-2.107407 -0.663995,-1.22762 -0.883404,-1.665458 -0.982446,-1.960501 -0.07795,-0.232221 -0.100806,-0.397014 -0.05506,-0.397064 0.01302,-1.5e-5 0.123112,-0.02043 0.244646,-0.04538 0.470093,-0.09647 2.360394,-0.310232 3.378057,-0.381992 0.325022,-0.02292 0.626287,0.02075 0.818036,0.118571 0.261698,0.133508 0.623596,0.528411 1.4691,1.60308 1.47888,1.879713 2.19264,2.531441 2.903749,2.651385 0.708244,0.119461 1.39743,-0.361698 1.624275,-1.133994 0.133554,-0.454688 0.02223,-0.799361 -0.552814,-1.711563 -0.435832,-0.691371 -1.616269,-2.238402 -2.690931,-3.526622 -0.798953,-0.957722 -1.146995,-1.303522 -1.401123,-1.392097 -0.198169,-0.06907 -1.647186,-0.08052 -2.362534,-0.01867 -0.747815,0.06466 -1.009537,0.09895 -2.664955,0.34911 -2.396895,0.362215 -3.023997,0.426001 -4.182663,0.425437 -0.893032,-4.36e-4 -1.069301,-0.0283 -1.488786,-0.235332 -0.159076,-0.07851 -0.297577,-0.142748 -0.30778,-0.142748 -0.03022,0 -0.02063,0.718592 0.0137,1.025937 0.0439,0.393022 0.09297,0.532497 0.425288,1.208661 0.445167,0.90579 0.971692,1.846553 2.717065,4.854685 l 0.862258,1.486092 0.113013,1.481231 c 0.06216,0.814677 0.155521,2.035236 0.207476,2.712354 0.181426,2.364494 0.264825,2.728375 0.726851,3.171361 0.405229,0.38853 1.021173,0.539302 1.515182,0.370888 z M 18.387734,23.409229 c 0.217025,-0.01679 0.721312,-0.05871 1.120638,-0.09316 0.399326,-0.03445 0.849386,-0.06273 1.000134,-0.06285 0.233497,-1.89e-4 0.276567,-0.0084 0.290838,-0.05545 0.0338,-0.111478 0.08106,-0.738126 0.11368,-1.507337 0.08721,-2.056803 0.118792,-2.515599 0.192845,-2.801594 0.02751,-0.106257 0.04117,-0.118378 0.133364,-0.118378 0.133108,0 0.693227,0.109583 1.684904,0.329639 0.807868,0.179267 1.320037,0.269617 1.530303,0.269953 0.262074,4.2e-4 2.371625,-0.445075 3.892767,-0.822074 0.876645,-0.217268 1.164886,-0.338599 1.46544,-0.616859 0.302451,-0.280017 0.421229,-0.617183 0.356031,-1.010641 -0.09391,-0.566712 -0.486539,-1.002933 -0.981131,-1.090053 -0.346764,-0.06108 -0.981478,0.03049 -2.560756,0.369447 -1.248265,0.267912 -1.669545,0.331595 -2.320194,0.35073 -0.488874,0.01438 -0.610084,0.0079 -0.8681,-0.04606 -0.334961,-0.07011 -0.653626,-0.198534 -0.68308,-0.275291 -0.02437,-0.06352 0.03951,-0.132431 0.477893,-0.515475 1.016401,-0.888105 2.127256,-1.9738 3.21393,-3.141137 0.822864,-0.883945 1.122754,-1.292588 1.191458,-1.62353 0.144678,-0.696913 -0.556649,-1.4402907 -1.360654,-1.4422371 -0.205602,-4.977e-4 -0.26678,0.013463 -0.446303,0.1018412 -0.114422,0.05633 -0.326823,0.2063668 -0.472001,0.3334154 -0.214832,0.1880035 -2.834537,2.8268415 -4.637066,4.6709325 l -0.395629,0.404752 -0.488254,-0.06873 c -1.180537,-0.166178 -1.939384,0.02139 -2.843824,0.702901 -0.283659,0.213743 -0.492001,0.470908 -0.670988,0.828227 -0.131222,0.261964 -0.197603,0.525869 -0.239926,0.95385 -0.05227,0.528527 -0.244335,3.741805 -0.303569,5.078633 -0.01785,0.402907 -0.01335,0.489907 0.02965,0.573055 0.177758,0.343746 0.993003,0.446056 2.577605,0.323478 z m 0.662913,-9.055581 c 0.878646,-0.296055 1.499517,-1.0128 1.656345,-1.912117 0.05871,-0.336699 0.05941,-0.526799 0.003,-0.836842 -0.09718,-0.534616 -0.287701,-0.897414 -0.680807,-1.29645 C 19.609974,9.8826562 19.173903,9.6651385 18.577138,9.5839169 17.568857,9.4466868 16.515629,10.026136 16.080354,10.95756 c -0.154776,0.331196 -0.214745,0.565682 -0.238162,0.931234 -0.06707,1.04696 0.612784,2.091453 1.583044,2.432118 0.361536,0.126939 0.551093,0.155891 0.946715,0.144596 0.325185,-0.0093 0.421258,-0.02512 0.678696,-0.11186 z"
       id="path4199"
       inkscape:connector-curvature="0"
       transform="translate(0,1004.3622)" />
  </g>
</svg>
