<?xml version="1.0" encoding="UTF-8" standalone="no"?>
<!-- Generator: Adobe Illustrator 19.0.0, SVG Export Plug-In . SVG Version: 6.00 Build 0)  -->

<svg
   xmlns:dc="http://purl.org/dc/elements/1.1/"
   xmlns:cc="http://creativecommons.org/ns#"
   xmlns:rdf="http://www.w3.org/1999/02/22-rdf-syntax-ns#"
   xmlns:svg="http://www.w3.org/2000/svg"
   xmlns="http://www.w3.org/2000/svg"
   xmlns:sodipodi="http://sodipodi.sourceforge.net/DTD/sodipodi-0.dtd"
   xmlns:inkscape="http://www.inkscape.org/namespaces/inkscape"
   version="1.1"
   id="Layer_1"
   x="0px"
   y="0px"
   viewBox="0 0 511.999 511.999"
   style="enable-background:new 0 0 511.999 511.999;"
   xml:space="preserve"
   inkscape:version="0.91 r13725"
   sodipodi:docname="1.svg"><metadata
     id="metadata11034"><rdf:RDF><cc:Work
         rdf:about=""><dc:format>image/svg+xml</dc:format><dc:type
           rdf:resource="http://purl.org/dc/dcmitype/StillImage" /><dc:title></dc:title></cc:Work></rdf:RDF></metadata><defs
     id="defs11032" /><sodipodi:namedview
     pagecolor="#ffffff"
     bordercolor="#666666"
     borderopacity="1"
     objecttolerance="10"
     gridtolerance="10"
     guidetolerance="10"
     inkscape:pageopacity="0"
     inkscape:pageshadow="2"
     inkscape:window-width="1215"
     inkscape:window-height="1000"
     id="namedview11030"
     showgrid="false"
     inkscape:zoom="0.46093841"
     inkscape:cx="38.788411"
     inkscape:cy="255.9995"
     inkscape:window-x="65"
     inkscape:window-y="24"
     inkscape:window-maximized="1"
     inkscape:current-layer="Layer_1" /><g
     id="g10988"
     transform="translate(-2,0)"><g
       id="g10990"><path
         d="M 387.905,22.378 C 370.779,7.947 349.014,0 326.62,0 321.228,0 315.8,0.464 310.483,1.379 L 169.224,25.699 C 143.301,30.163 120.173,45.346 105.769,67.36 91.367,89.372 86.718,116.646 93.011,142.188 l 8.579,34.817 58.496,-14.414 -8.579,-34.816 c -2.306,-9.363 -0.603,-19.363 4.677,-27.431 5.28,-8.07 13.759,-13.637 23.262,-15.273 L 320.704,60.752 c 1.95,-0.336 3.941,-0.506 5.916,-0.506 8.209,0 16.188,2.913 22.467,8.204 7.88,6.64 12.4,16.358 12.4,26.664 l 0,321.773 c 0,9.867 -4.207,19.313 -11.54,25.914 -6.414,5.773 -14.698,8.953 -23.324,8.953 -1.216,0 -2.447,-0.064 -3.657,-0.193 l -69.777,-7.355 c -14.561,-1.534 -26.697,-12.117 -30.199,-26.333 l -5.214,-21.16 -58.496,14.414 5.213,21.159 c 9.554,38.779 42.659,67.648 82.379,71.834 l 69.779,7.355 c 3.301,0.348 6.654,0.524 9.971,0.524 23.537,0 46.134,-8.673 63.629,-24.421 20.006,-18.008 31.482,-43.775 31.482,-70.692 l 0,-321.772 C 421.732,67.002 409.403,40.49 387.905,22.378 Z"
         id="path10992"
         inkscape:connector-curvature="0" /></g></g><g
     id="g10994"
     transform="translate(-2,0)"><g
       id="g10996"><path
         d="m 167.946,194.497 -58.496,14.415 41.965,170.308 58.496,-14.414 -41.965,-170.309 z m 4.189,156.931 c -6.878,0 -12.454,-5.576 -12.454,-12.454 0,-6.878 5.576,-12.454 12.454,-12.454 6.878,0 12.454,5.576 12.454,12.454 0,6.878 -5.576,12.454 -12.454,12.454 z"
         id="path10998"
         inkscape:connector-curvature="0" /></g></g><g
     id="g11000" /><g
     id="g11002" /><g
     id="g11004" /><g
     id="g11006" /><g
     id="g11008" /><g
     id="g11010" /><g
     id="g11012" /><g
     id="g11014" /><g
     id="g11016" /><g
     id="g11018" /><g
     id="g11020" /><g
     id="g11022" /><g
     id="g11024" /><g
     id="g11026" /><g
     id="g11028" /><g
     id="g11802"
     transform="matrix(0.8,0,0,0.8,83.163607,91.841555)"><path
       inkscape:connector-curvature="0"
       style="fill:#f05228"
       d="M 213.333,0 C 95.509,0 0,95.514 0,213.333 c 0,117.819 95.509,213.333 213.333,213.333 117.815,0 213.333,-95.514 213.333,-213.333 C 426.666,95.514 331.149,0 213.333,0 Z m 0,372.527 c -87.778,0 -159.194,-71.411 -159.194,-159.194 0,-87.783 71.416,-159.193 159.194,-159.193 87.778,0 159.194,71.415 159.194,159.194 0,87.779 -71.416,159.193 -159.194,159.193 z"
       id="path11804" /><rect
       x="17.066"
       y="186.258"
       transform="matrix(-0.7071,-0.7071,0.7071,-0.7071,213.3327,515.0204)"
       style="fill:#f05228"
       width="392.53"
       height="54.139"
       id="rect11806" /></g></svg>