<?xml version="1.0" encoding="UTF-8" standalone="no"?>
<!-- Created with Inkscape (http://www.inkscape.org/) -->

<svg
   xmlns:dc="http://purl.org/dc/elements/1.1/"
   xmlns:cc="http://creativecommons.org/ns#"
   xmlns:rdf="http://www.w3.org/1999/02/22-rdf-syntax-ns#"
   xmlns:svg="http://www.w3.org/2000/svg"
   xmlns="http://www.w3.org/2000/svg"
   xmlns:sodipodi="http://sodipodi.sourceforge.net/DTD/sodipodi-0.dtd"
   xmlns:inkscape="http://www.inkscape.org/namespaces/inkscape"
   width="45"
   height="45"
   viewBox="0 0 45 45.000001"
   id="svg2"
   version="1.1"
   inkscape:version="0.91 r13725"
   sodipodi:docname="mitopo_wall.svg"
   inkscape:export-filename="/home/al/git/topo/miroutes/static/miroutes/img/wall_icon.png"
   inkscape:export-xdpi="240"
   inkscape:export-ydpi="240">
  <defs
     id="defs4">
    <mask
       maskUnits="userSpaceOnUse"
       id="mask13943">
      <path
         style="display:inline;opacity:1;fill:#ffffff;fill-opacity:1;stroke:none;stroke-width:3.71853924;stroke-linecap:round;stroke-linejoin:round;stroke-miterlimit:4;stroke-dasharray:none;stroke-opacity:1"
         id="path13945"
         sodipodi:type="arc"
         sodipodi:cx="-686.50781"
         sodipodi:cy="739.12512"
         sodipodi:rx="55.387077"
         sodipodi:ry="56.483513"
         sodipodi:start="4.5469573"
         sodipodi:end="4.5441218"
         sodipodi:open="true"
         d="m -695.62885,683.41276 a 55.387077,56.483513 0 0 1 63.74546,46.37127 55.387077,56.483513 0 0 1 -45.42594,65.04021 55.387077,56.483513 0 0 1 -63.80986,-46.27906 55.387077,56.483513 0 0 1 45.33547,-65.10582"
         transform="matrix(0.70273346,-0.71145322,0.71145322,0.70273346,0,0)" />
    </mask>
    <mask
       maskUnits="userSpaceOnUse"
       id="mask14045">
      <path
         style="display:inline;opacity:1;fill:#ffffff;fill-opacity:1;stroke:none;stroke-width:3.71853924;stroke-linecap:round;stroke-linejoin:round;stroke-miterlimit:4;stroke-dasharray:none;stroke-opacity:1"
         id="path14047"
         sodipodi:type="arc"
         sodipodi:cx="-686.71405"
         sodipodi:cy="739.0564"
         sodipodi:rx="46.263237"
         sodipodi:ry="47.179058"
         sodipodi:start="4.5469573"
         sodipodi:end="4.5441218"
         sodipodi:open="true"
         d="m -694.33259,692.52146 a 46.263237,47.179058 0 0 1 53.24475,38.73259 46.263237,47.179058 0 0 1 -37.94298,54.32622 46.263237,47.179058 0 0 1 -53.29855,-38.65557 46.263237,47.179058 0 0 1 37.86742,-54.38103"
         transform="matrix(0.70273346,-0.71145322,0.71145322,0.70273346,0,0)" />
    </mask>
  </defs>
  <sodipodi:namedview
     id="base"
     pagecolor="#ffffff"
     bordercolor="#666666"
     borderopacity="1.0"
     inkscape:pageopacity="0.0"
     inkscape:pageshadow="2"
     inkscape:zoom="11.2"
     inkscape:cx="22.866875"
     inkscape:cy="25.13429"
     inkscape:document-units="px"
     inkscape:current-layer="layer1"
     showgrid="true"
     units="px"
     gridtolerance="10"
     inkscape:window-width="1301"
     inkscape:window-height="744"
     inkscape:window-x="65"
     inkscape:window-y="280"
     inkscape:window-maximized="1">
    <inkscape:grid
       type="xygrid"
       id="grid4684"
       enabled="true"
       color="#777777"
       opacity="0.1254902"
       empcolor="#777777"
       empopacity="0.25098039" />
  </sodipodi:namedview>
  <metadata
     id="metadata7">
    <rdf:RDF>
      <cc:Work
         rdf:about="">
        <dc:format>image/svg+xml</dc:format>
        <dc:type
           rdf:resource="http://purl.org/dc/dcmitype/StillImage" />
        <dc:title></dc:title>
      </cc:Work>
    </rdf:RDF>
  </metadata>
  <g
     inkscape:groupmode="layer"
     id="layer4"
     inkscape:label="Layer 4"
     style="display:none"
     transform="translate(0,-3)" />
  <g
     inkscape:groupmode="layer"
     id="layer3"
     inkscape:label="Layer 3"
     style="display:none"
     transform="translate(0,-3)" />
  <g
     inkscape:groupmode="layer"
     id="layer2"
     inkscape:label="Layer 2"
     style="display:none"
     transform="translate(0,-3)" />
  <g
     inkscape:label="Layer 1"
     inkscape:groupmode="layer"
     id="layer1"
     transform="translate(0,-1007.3622)"
     style="display:inline;opacity:1">
    <g
       style="display:inline;opacity:1;fill:#ffffff;fill-opacity:1"
       transform="matrix(0.27439707,0.27780188,-0.27780188,0.27439707,290.70621,741.22972)"
       id="g11362"
       mask="url(#mask14045)">
      <path
         style="fill:#000000;fill-opacity:1;stroke:none"
         d="M 17.386555,997.90492 A 6.2655796,6.2655796 0 0 1 5.1472606,995.21613 6.2655796,6.2655796 0 1 1 17.386555,997.90492 Z"
         id="path11364"
         inkscape:connector-curvature="0" />
      <path
         inkscape:connector-curvature="0"
         style="fill:#000000;fill-opacity:1;stroke:none"
         d="m 26.637499,1020.7685 c -1.310955,-1.2857 -7.770009,-8.5246 -9.087583,-10.0274 -1.303093,-1.4863 -1.611621,-2.0521 -1.932073,-3.543 -0.157448,-0.7326 -0.14979,-1.1858 0.0388,-2.2969 0.415495,-2.4479 1.508991,-4.2006 3.589013,-5.75282 l 1.172134,-0.87469 -0.145523,-8.94765 c -0.08003,-4.9212 -0.09228,-9.36968 -0.02722,-9.88549 0.141306,-1.12022 0.476545,-1.74894 1.226616,-2.30045 1.267121,-0.93169 3.088124,-0.94796 4.176213,-0.0373 1.035079,0.86628 1.211969,2.02074 1.372949,8.96041 0.219183,9.4488 -0.916168,10.41912 0.443838,9.89092 1.952969,-0.7585 3.669784,-2.62769 6.114926,-6.52965 2.809459,-4.48334 3.835485,-5.79466 4.824303,-6.16573 1.615843,-0.60638 3.58781,0.2561 4.19756,1.83588 0.296652,0.76859 0.166382,2.01858 -0.315203,3.0245 -0.614103,1.28273 -5.552028,9.1998 -6.290317,10.0854 -0.601975,0.72208 -1.264984,1.21016 -3.995881,2.94167 -1.800786,1.1417 -3.296295,2.1766 -3.323354,2.2998 -0.0648,0.295 1.102684,1.7273 3.227275,3.9595 2.255709,2.3698 4.318602,4.6435 4.274078,4.8462 -1.96995,1.614 -7.689916,10.322 -9.54055,8.5168 z"
         id="path11366" />
      <path
         inkscape:connector-curvature="0"
         style="fill:#000000;fill-opacity:1;stroke:none"
         d="m 64.825028,1041.0515 c -1.0216,-0.4637 -1.9036,-1.1451 -6.0356,-4.6628 -2.288309,-1.9482 -4.911256,-4.1739 -5.828773,-4.946 l -1.668216,-1.4038 -3.875848,-1.0016 c -10.83941,-2.8011 -14.013811,-3.7079 -16.039128,-4.5817 -0.83234,-0.3592 -2.945443,-2.3523 -2.910153,-2.513 0.01282,-0.058 1.692627,-0.2371 2.991824,-1.6324 5.950502,-5.5249 9.394069,-13.218 15.435148,-18.5681 0.76685,-0.6562 1.085394,-0.7506 2.488705,-0.7381 2.646802,0.024 11.649701,1.0163 14.056241,1.5499 1.7698,0.3924 3.62277,0.7552 4.28478,1.7408 1.30374,1.941 1.08349,4.4237 -0.94756,5.6095 -1.31197,0.766 -3.66125,0.9782 -9.42086,0.3094 -5.161571,-0.5994 -5.711608,-0.5705 -6.894738,0.3632 -0.840749,0.6634 -6.283047,7.5653 -6.405706,8.1237 -0.0459,0.2089 0.914813,0.7072 2.17309,1.1271 0.746566,0.2492 2.844082,0.8792 4.661144,1.4001 3.347444,0.9596 4.686898,1.4214 5.508903,1.8994 0.552817,0.3215 10.891287,9.2907 12.070027,10.4715 1.17198,1.174 1.89601,2.2763 2.01431,3.0668 0.15244,1.0186 -0.37304,2.7857 -1.02316,3.4409 -1.26718,1.2769 -3.08635,1.6479 -4.63443,0.9452 z"
         id="path11368" />
      <path
         style="color:#000000;font-style:normal;font-variant:normal;font-weight:normal;font-stretch:normal;font-size:medium;line-height:normal;font-family:sans-serif;text-indent:0;text-align:start;text-decoration:none;text-decoration-line:none;text-decoration-style:solid;text-decoration-color:#000000;letter-spacing:normal;word-spacing:normal;text-transform:none;direction:ltr;block-progression:tb;writing-mode:lr-tb;baseline-shift:baseline;text-anchor:start;white-space:normal;clip-rule:nonzero;display:inline;overflow:visible;visibility:visible;opacity:1;isolation:auto;mix-blend-mode:normal;color-interpolation:sRGB;color-interpolation-filters:linearRGB;solid-color:#000000;solid-opacity:1;fill:#000000;fill-opacity:1;fill-rule:nonzero;stroke:none;stroke-width:0.14148083px;stroke-linecap:butt;stroke-linejoin:miter;stroke-miterlimit:4;stroke-dasharray:none;stroke-dashoffset:0;stroke-opacity:1;color-rendering:auto;image-rendering:auto;shape-rendering:auto;text-rendering:auto;enable-background:accumulate"
         d="m 87.228516,1035.9141 c 0.03462,0.7315 0.190131,1.5595 0.08594,2.164 -0.180068,1.0447 -0.597483,1.8247 -1.193359,2.3438 0.465143,-1.5926 0.707502,-2.976 1.107422,-4.5078 z"
         id="path11372"
         inkscape:connector-curvature="0" />
    </g>
    <path
       style="color:#000000;font-style:normal;font-variant:normal;font-weight:normal;font-stretch:normal;font-size:medium;line-height:normal;font-family:sans-serif;text-indent:0;text-align:start;text-decoration:none;text-decoration-line:none;text-decoration-style:solid;text-decoration-color:#000000;letter-spacing:normal;word-spacing:normal;text-transform:none;direction:ltr;block-progression:tb;writing-mode:lr-tb;baseline-shift:baseline;text-anchor:start;white-space:normal;clip-rule:nonzero;display:inline;overflow:visible;visibility:visible;opacity:1;isolation:auto;mix-blend-mode:normal;color-interpolation:sRGB;color-interpolation-filters:linearRGB;solid-color:#000000;solid-opacity:1;fill:#000000;fill-opacity:1;fill-rule:nonzero;stroke:none;stroke-width:4;stroke-linecap:round;stroke-linejoin:round;stroke-miterlimit:4;stroke-dasharray:none;stroke-dashoffset:0;stroke-opacity:1;color-rendering:auto;image-rendering:auto;shape-rendering:auto;text-rendering:auto;enable-background:accumulate"
       d="m 23.490234,1007.9648 c -1.367825,-0.05 -2.760141,0.056 -4.160156,0.2696 -0.09601,-9e-4 -0.191962,0.01 -0.287109,0.018 -0.0079,0 -0.01553,6e-4 -0.02344,0 -0.01305,0 -0.02607,0.01 -0.03906,0.01 l -0.02344,0 c -0.0068,0 -0.01269,0 -0.01953,0.01 -0.106983,0.02 -0.21215,0.049 -0.314453,0.086 -11.8498821,2.2052 -19.8298265,13.5344 -17.81250012,25.461 2.03700582,12.0428 13.49671612,20.1925 25.54101512,18.164 12.0443,-2.0285 20.20162,-13.4816 18.181641,-25.5273 -1.767481,-10.54 -10.753542,-18.1101 -21.042969,-18.4903 z m -0.134765,3.9942 c 8.451931,0.3006 8.345538,7.4829 7.410993,16.2296 -0.766462,7.1736 4.834585,18.1789 -5.078962,19.8485 -9.913547,1.6696 -19.2550008,-4.9743 -20.9316406,-14.8867 -1.6766399,-9.9124 4.9599171,-19.2578 14.8710936,-20.9414 0.01175,0 0.02347,-0.01 0.03516,-0.01 l 0.01563,0 c 1.239488,-0.2069 2.470316,-0.2832 3.677735,-0.2402 z"
       id="path5121"
       inkscape:connector-curvature="0"
       sodipodi:nodetypes="cccccsccssscccsssccccc" />
  </g>
</svg>
